<svg width="100" height="122" viewBox="0 0 100 122" fill="none" xmlns="http://www.w3.org/2000/svg">
    <path d="M49.8625 96.3052C47.108 96.7151 44.2945 96.2446 41.8231 94.9612L37.9231 115.109C40.4836 115.841 43.198 115.841 45.7585 115.109C47.2705 106.301 49.9446 99.6526 49.8625 96.3052Z" fill="#9CECDE"/>
    <path d="M69.624 92.8259C68.1007 95.092 65.9003 96.8181 63.3367 97.7579L77.7967 113.345C80.5447 111.545 81.5862 110.681 82.4887 107.765C74.2598 97.7965 74.2068 96.5832 69.624 92.8259Z" fill="#9CECDE"/>
    <path d="M89.8791 48.9576C92.2551 49.1136 92.6391 48.5496 90.1791 47.7216C89.4951 47.4936 85.8351 46.9296 85.1631 46.8336L83.6517 46.6296C82.3677 46.2456 84.7551 44.6616 85.2357 44.0856C85.8951 43.3056 86.5911 42.4176 84.0237 43.5696C83.5867 43.7591 82.3816 44.3685 79.8477 45.3096C76.7934 46.3776 76.741 46.2772 76.2363 46.6416C76.4669 47.5632 76.9102 48.4178 77.5317 49.1368C78.1525 49.8557 78.9332 50.4189 79.8117 50.781L81.4077 50.2049C82.5894 50.2393 83.766 50.3759 84.9237 50.613C85.8711 50.829 87.4551 51.441 88.4751 51.705C88.7277 51.7782 89.2165 51.4883 87.1191 50.229C88.1511 50.313 89.5936 50.5915 90.7071 50.721C90.9717 50.7519 91.2471 50.373 89.7231 49.7376C89.1591 49.509 88.1751 49.101 87.6831 48.9456C88.4151 48.9087 89.1477 48.9127 89.8791 48.9576Z" fill="#9CECDE"/>
    <path d="M17.3205 47.4576C14.5485 46.9416 15.4485 47.6471 16.2645 48.2496C16.8645 48.6917 19.5879 49.653 18.4365 50.337C15.4845 51.4738 12.7485 52.689 12.3165 52.965C10.1211 54.345 10.6245 54.801 12.9045 54.093C13.6051 53.8675 14.3183 53.6831 15.0405 53.541C14.5352 53.853 13.5285 54.585 13.2405 54.8042C11.9085 55.7882 12.2685 56.0882 12.5205 56.0042C13.4805 55.6802 14.9565 54.9936 15.8925 54.6842C15.6885 54.8736 15.5325 55.0442 15.4365 55.1402C14.2725 56.3162 14.69 56.5637 14.9205 56.4362C15.8356 55.9277 17.2485 54.9835 18.1119 54.5414C19.1819 54.037 20.2942 53.6274 21.4359 53.3174L23.5239 53.5454C23.7567 51.7558 24.4242 50.0504 25.4679 48.5781C24.7264 48.3513 22.3895 48.4233 17.3205 47.4576Z" fill="#9CECDE"/>
    <path d="M53.762 44.4456C53.5725 43.4281 53.1683 40.9814 54.002 40.5342C56.162 39.4062 55.178 37.4395 54.05 38.3742C53.51 38.8163 53.306 38.7462 53.27 38.3862C53.294 36.3822 51.3386 32.9382 49.2026 37.8702C48.5597 39.3671 47.8132 41.5334 49.0132 42.5376C49.8973 43.2759 51.2994 42.8881 52.0131 42.7416L51.0278 44.1311C50.9363 44.8334 50.6615 45.5433 49.9611 45.3816C49.441 45.2517 48.9114 45.1634 48.3772 45.1176C48.3772 45.1176 49.9371 50.697 51.535 53.3281C52.6681 50.2828 54.2761 47.4359 56.2984 44.8928C54.722 45.0456 54.0771 46.1319 53.762 44.4456Z" fill="#9CECDE"/>
    <path d="M15.5325 47.6256V51.5129C16.0845 51.2849 16.6693 51.045 17.2845 50.7929V48.8073C16.6314 48.5271 16.037 48.1262 15.5325 47.6256Z" fill="#CFC2F4"/>
    <path d="M15.5325 56.0851V120.988H17.2845V54.9931C16.7325 55.3411 16.0965 55.7491 15.5325 56.0851Z" fill="#CFC2F4"/>
    <path d="M52.0099 42.7535L51.0505 44.1215L51.0745 42.9575L52.0099 42.7535Z" fill="#CFC2F4"/>
    <path d="M76.2483 46.6631L76.5363 46.4831C76.5994 46.4502 79.0847 45.5862 79.1258 45.5711C77.4957 44.7576 76.0683 45.1176 76.2483 46.6631Z" fill="#CFC2F4"/>
    <path d="M81.4556 50.205L79.8135 50.781C80.9175 51.237 82.024 51.1751 82.3221 50.2511L81.4556 50.205Z" fill="#CFC2F4"/>
    <path d="M46.6703 119.2C46.5313 117.8 46.2251 116.422 45.7583 115.095C43.1978 115.827 40.4834 115.827 37.9229 115.095C34.5275 116.079 30.6515 119.09 28.6235 120.986C35.4389 120.986 39.9509 120.926 45.1343 120.914C45.3515 120.915 45.5665 120.869 45.7649 120.78C45.9634 120.692 46.141 120.563 46.286 120.401C46.431 120.239 46.5401 120.048 46.6064 119.842C46.6726 119.635 46.6944 119.416 46.6703 119.2Z" fill="#CFC2F4"/>
    <path d="M84.7073 108.953L82.4753 107.753C81.5873 110.669 80.5313 111.533 77.7833 113.333C79.1633 115.397 78.8393 116.417 78.6833 117.016C77.2307 118.384 76.4999 118.378 75.4919 120.995H80.5446C81.2229 121.01 81.8917 120.831 82.4722 120.479C83.0519 120.127 83.5199 119.617 83.8206 119.009C84.5785 117.366 85.2101 114.041 85.92 112.085C86.141 111.505 86.1391 110.864 85.9155 110.286C85.6913 109.707 85.2612 109.232 84.7073 108.953Z" fill="#CFC2F4"/>
    <path d="M86.2554 32.8423C86.2504 32.9521 86.2024 33.0555 86.1215 33.1298C86.0407 33.2041 85.9333 33.2431 85.8234 33.2383C85.7135 33.2336 85.61 33.1854 85.5361 33.1043C85.4615 33.0233 85.4224 32.9161 85.4274 32.8063C85.43 32.752 85.4426 32.6986 85.466 32.6493C85.4887 32.6 85.5215 32.5556 85.5613 32.5189C85.6018 32.4821 85.6485 32.4536 85.6996 32.4349C85.7508 32.4163 85.8051 32.408 85.8594 32.4103C85.9138 32.4127 85.9674 32.4257 86.0167 32.4487C86.066 32.4717 86.1102 32.5042 86.1468 32.5443C86.1834 32.5844 86.2125 32.6314 86.2308 32.6825C86.2491 32.7337 86.258 32.788 86.2554 32.8423Z" fill="#CFC2F4"/>
    <path d="M31.5275 24.9367L18.3653 2.12475C18.1676 1.78274 17.8833 1.49877 17.5411 1.30135C17.1989 1.10393 16.8108 1 16.4157 1C16.0206 1 15.6325 1.10393 15.2902 1.30135C14.9481 1.49877 14.6638 1.78274 14.466 2.12475L1.30133 24.9367C1.10408 25.2783 1.00019 25.6657 1 26.0601C0.999874 26.4545 1.10345 26.842 1.30044 27.1837C1.49743 27.5253 1.78089 27.8092 2.12225 28.0067C2.46362 28.2042 2.85097 28.3083 3.24533 28.3087H15.5447V47.3496C15.7127 47.2536 16.2287 47.2656 17.2967 47.4576V28.3069H29.5835C29.9776 28.3062 30.3646 28.202 30.7057 28.0046C31.0469 27.8072 31.3301 27.5236 31.527 27.1822C31.7239 26.8408 31.8276 26.4537 31.8277 26.0596C31.8278 25.6655 31.7243 25.2782 31.5275 24.9367ZM16.0487 9.8521C16.0487 9.75667 16.0867 9.66509 16.1542 9.59758C16.2217 9.53006 16.3133 9.4921 16.4087 9.4921C16.5042 9.4921 16.5958 9.53006 16.6633 9.59758C16.7308 9.66509 16.7687 9.75667 16.7687 9.8521V17.81C16.7687 17.9055 16.7308 17.9971 16.6633 18.0646C16.5958 18.1321 16.5042 18.17 16.4087 18.17C16.3133 18.17 16.2217 18.1321 16.1542 18.0646C16.0867 17.9971 16.0487 17.9055 16.0487 17.81V9.8521ZM16.4087 20.8195C16.5749 20.8195 16.7373 20.8687 16.8754 20.9611C17.0136 21.0534 17.1212 21.1845 17.1848 21.3381C17.2484 21.4915 17.265 21.6604 17.2326 21.8234C17.2002 21.9863 17.1202 22.136 17.0027 22.2535C16.8852 22.371 16.7355 22.451 16.5726 22.4834C16.4097 22.5158 16.2408 22.4991 16.0873 22.4356C15.9338 22.372 15.8026 22.2643 15.7103 22.1262C15.618 21.988 15.5687 21.8256 15.5687 21.6595C15.5681 21.5491 15.5893 21.4397 15.6312 21.3376C15.6731 21.2354 15.7348 21.1426 15.8128 21.0645C15.8908 20.9863 15.9835 20.9245 16.0856 20.8825C16.1877 20.8404 16.2971 20.819 16.4074 20.8195H16.4087Z" fill="#CFC2F4"/>
    <path d="M63.7451 34.2842C64.1203 34.1762 64.4455 33.9381 64.6615 33.6126C64.8775 33.2871 64.971 32.8953 64.9249 32.5073C64.8788 32.1192 64.6963 31.7603 64.4095 31.4945C64.1228 31.2288 63.7514 31.0737 63.3611 31.0568C63.6358 30.8093 63.8196 30.4766 63.8828 30.1122C63.9453 29.7477 63.884 29.3727 63.7085 29.0473C63.5323 28.7219 63.2525 28.4651 62.9127 28.3181C62.5735 28.1711 62.1946 28.1425 61.8371 28.2368C61.9912 27.9079 62.0335 27.5373 61.9558 27.1822C61.8788 26.8272 61.6868 26.5075 61.4095 26.2726C61.1323 26.0377 60.7855 25.9006 60.4224 25.8826C60.0598 25.8645 59.7011 25.9665 59.4017 26.1728C59.4434 25.7959 59.3544 25.416 59.1497 25.0969C58.9445 24.7778 58.6363 24.539 58.2756 24.4205C57.9156 24.302 57.5253 24.311 57.171 24.4461C56.8167 24.5811 56.5198 24.834 56.3297 25.1623C56.2565 24.7693 56.0487 24.4142 55.7417 24.1581C55.4348 23.902 55.0483 23.7611 54.6485 23.7597C54.2487 23.7583 53.8615 23.8964 53.5527 24.1503C53.2438 24.4042 53.0335 24.7579 52.9577 25.1503C52.7701 24.8206 52.4752 24.5655 52.1215 24.4276C51.7685 24.2897 51.3781 24.2773 51.0169 24.3926C50.6556 24.5079 50.3449 24.7438 50.1371 25.061C49.9293 25.378 49.8365 25.757 49.8744 26.1343C49.5769 25.9252 49.2192 25.8198 48.856 25.8343C48.4928 25.8487 48.1445 25.9822 47.8647 26.2142C47.5849 26.4463 47.3893 26.7638 47.3079 27.1181C47.2265 27.4723 47.2638 27.8434 47.4143 28.1743C47.0579 28.0797 46.6801 28.1066 46.3409 28.2509C46.0016 28.3952 45.7201 28.6486 45.541 28.9709C45.362 29.2932 45.2955 29.6661 45.3522 30.0304C45.409 30.3947 45.5857 30.7297 45.8543 30.9823C45.464 30.9962 45.0912 31.1481 44.8024 31.411C44.5136 31.6739 44.3274 32.0308 44.277 32.418C44.2266 32.8053 44.3153 33.198 44.5271 33.526C44.7391 33.8541 45.0605 34.0963 45.4343 34.2096C45.0599 34.3201 44.7368 34.5598 44.5227 34.8861C44.3084 35.2123 44.2169 35.604 44.2645 35.9914C44.312 36.3789 44.4954 36.7368 44.7822 37.0017C45.0689 37.2665 45.4403 37.421 45.8303 37.4376C45.5588 37.688 45.3791 38.0221 45.3198 38.3867C45.2606 38.7512 45.3253 39.125 45.5036 39.4484C45.6819 39.7718 45.9635 40.0261 46.3033 40.1707C46.6432 40.3152 47.0216 40.3416 47.3783 40.2456C47.2561 40.5053 47.204 40.7925 47.2274 41.0784C47.2507 41.3645 47.3486 41.6394 47.5113 41.8758C47.6739 42.1122 47.8957 42.3019 48.1545 42.4259C48.4133 42.5498 48.7001 42.6038 48.9863 42.5825C48.2543 41.9945 47.9903 40.6877 49.1903 37.9151C51.3264 32.9837 53.2817 36.4271 53.2577 38.4311C53.2937 38.7911 53.4977 38.8631 54.0377 38.4191C55.1657 37.4831 56.1497 39.4511 54.0017 40.5785C53.5937 40.7951 53.3177 41.2732 53.6657 43.9259C53.6866 44.1156 53.7188 44.3039 53.7617 44.4899C53.9954 44.6097 54.255 44.6726 54.5177 44.6735C54.7805 44.6745 55.04 44.6135 55.275 44.4954C55.5099 44.3774 55.7139 44.2056 55.8699 43.9941C56.0259 43.7825 56.1301 43.5372 56.1737 43.2779C56.3588 43.6093 56.6525 43.8671 57.0049 44.008C57.3573 44.1489 57.7476 44.1645 58.1101 44.052C58.4727 43.9395 58.7853 43.7059 58.9963 43.3901C59.2072 43.0745 59.3032 42.6959 59.2685 42.3179C59.5634 42.5297 59.9196 42.6384 60.2828 42.6273C60.6453 42.6162 60.9946 42.4859 61.2756 42.2565C61.5573 42.027 61.755 41.7113 61.839 41.3581C61.923 41.0049 61.8876 40.6339 61.7398 40.3025C62.0948 40.3983 62.4718 40.373 62.8116 40.2305C63.1508 40.0881 63.4325 39.8366 63.6131 39.5158C63.7931 39.1951 63.8619 38.8234 63.807 38.4595C63.7527 38.0956 63.5784 37.7602 63.3118 37.5065C63.6984 37.4887 64.0666 37.3358 64.352 37.0744C64.6375 36.8131 64.8219 36.4598 64.8737 36.0762C64.9249 35.6926 64.8403 35.3031 64.6344 34.9756C64.4278 34.6481 64.1133 34.4034 63.7451 34.2842Z" fill="#CFC2F4"/>
    <path d="M27.5076 51.1409C27.945 51.1409 28.2996 50.7864 28.2996 50.3489C28.2996 49.9116 27.945 49.5569 27.5076 49.5569C27.0701 49.5569 26.7156 49.9116 26.7156 50.3489C26.7156 50.7864 27.0701 51.1409 27.5076 51.1409Z" fill="#CFC2F4"/>
    <path d="M34.6353 57.189C34.6353 57.3457 34.5888 57.4988 34.5018 57.629C34.4148 57.7593 34.2911 57.8608 34.1464 57.9208C34.0016 57.9807 33.8424 57.9964 33.6887 57.9658C33.5351 57.9353 33.394 57.8598 33.2833 57.7491C33.1725 57.6383 33.0971 57.4972 33.0665 57.3436C33.0359 57.1899 33.0516 57.0307 33.1115 56.886C33.1715 56.7412 33.273 56.6176 33.4033 56.5305C33.5335 56.4435 33.6866 56.397 33.8433 56.397C34.0528 56.3987 34.2533 56.4826 34.4015 56.6308C34.5496 56.779 34.6336 56.9795 34.6353 57.189Z" fill="#CFC2F4"/>
    <path d="M42.0391 51.4289C42.0391 51.5856 41.9927 51.7387 41.9056 51.8689C41.8186 51.9992 41.6949 52.1007 41.5502 52.1606C41.4054 52.2206 41.2462 52.2362 41.0926 52.2057C40.9389 52.1752 40.7978 52.0997 40.6871 51.9889C40.5763 51.8782 40.5009 51.737 40.4703 51.5834C40.4397 51.4298 40.4554 51.2706 40.5154 51.1258C40.5753 50.9811 40.6768 50.8574 40.8071 50.7704C40.9373 50.6834 41.0905 50.6369 41.2471 50.6369C41.4566 50.6387 41.657 50.7228 41.8051 50.8709C41.9533 51.0191 42.0373 51.2194 42.0391 51.4289Z" fill="#CFC2F4"/>
    <path d="M50.1741 58.1963C50.1741 58.3529 50.128 58.5062 50.0409 58.6365C49.9537 58.7668 49.8306 58.8684 49.6856 58.9284C49.5409 58.9885 49.3816 59.0043 49.228 58.9738C49.0743 58.9433 48.9331 58.8679 48.8223 58.7572C48.7115 58.6464 48.6359 58.5053 48.6054 58.3517C48.5747 58.198 48.5904 58.0387 48.6503 57.894C48.7103 57.7492 48.8118 57.6255 48.942 57.5385C49.0723 57.4514 49.2254 57.4049 49.3821 57.4049C49.5914 57.4068 49.7918 57.4907 49.9398 57.6387C50.0882 57.7867 50.1722 57.9869 50.1741 58.1963Z" fill="#CFC2F4"/>
    <path d="M57.0855 51.4289C57.0855 51.5856 57.0388 51.7387 56.9516 51.8689C56.8651 51.9992 56.7413 52.1007 56.5967 52.1606C56.4521 52.2206 56.2923 52.2362 56.1388 52.2057C55.9853 52.1752 55.8438 52.0997 55.7333 51.9889C55.6228 51.8782 55.547 51.737 55.5167 51.5834C55.4857 51.4298 55.5015 51.2706 55.5615 51.1258C55.6215 50.9811 55.7232 50.8574 55.8533 50.7704C55.9834 50.6834 56.1369 50.6369 56.2935 50.6369C56.5026 50.6387 56.7034 50.7228 56.8512 50.8709C56.9996 51.0191 57.0836 51.2194 57.0855 51.4289Z" fill="#CFC2F4"/>
    <path d="M65.7247 51.8849C65.7247 52.0416 65.678 52.1947 65.5915 52.3249C65.5043 52.4552 65.3805 52.5567 65.2359 52.6167C65.0913 52.6766 64.9321 52.6923 64.778 52.6617C64.6245 52.6311 64.4837 52.5557 64.3725 52.4449C64.262 52.3342 64.1862 52.1931 64.1559 52.0395C64.1256 51.8858 64.1414 51.7266 64.2008 51.5818C64.2608 51.4371 64.3624 51.3135 64.4925 51.2264C64.6233 51.1394 64.7761 51.0929 64.9328 51.0929C65.1424 51.0948 65.3426 51.1788 65.4911 51.3269C65.6389 51.475 65.7229 51.6754 65.7247 51.8849Z" fill="#CFC2F4"/>
    <path d="M74.4961 51.429C74.9332 51.429 75.2881 51.0744 75.2881 50.637C75.2881 50.1996 74.9332 49.845 74.4961 49.845C74.0584 49.845 73.7041 50.1996 73.7041 50.637C73.7041 51.0744 74.0584 51.429 74.4961 51.429Z" fill="#CFC2F4"/>
    <path d="M71.0528 59.1683C71.0528 59.325 71.006 59.4781 70.9189 59.6083C70.8324 59.7386 70.7086 59.8401 70.5639 59.9001C70.4193 59.96 70.2595 59.9757 70.106 59.9451C69.9526 59.9145 69.8111 59.8391 69.7006 59.7283C69.59 59.6176 69.5142 59.4765 69.4839 59.3229C69.4536 59.1692 69.4688 59.01 69.5288 58.8652C69.5888 58.7205 69.6905 58.5968 69.8206 58.5098C69.9507 58.4228 70.1041 58.3763 70.2608 58.3763C70.365 58.3752 70.4686 58.395 70.5652 58.4344C70.6618 58.4738 70.7496 58.5321 70.8229 58.6058C70.8968 58.6796 70.9549 58.7674 70.9947 58.864C71.0338 58.9605 71.054 59.064 71.0528 59.1683Z" fill="#CFC2F4"/>
    <path d="M15.5325 47.3496V28.3069" stroke="#CFC2F4" stroke-width="0.8" stroke-linecap="round" stroke-linejoin="round"/>
    <path d="M15.5325 51.5129V47.6375" stroke="#CFC2F4" stroke-width="0.8" stroke-linecap="round" stroke-linejoin="round"/>
    <path d="M15.5325 121V56.121" stroke="#CFC2F4" stroke-width="0.8" stroke-linecap="round" stroke-linejoin="round"/>
    <path d="M17.2969 55.041V121" stroke="#CFC2F4" stroke-width="0.8" stroke-linecap="round" stroke-linejoin="round"/>
    <path d="M17.2969 48.8135V50.8049" stroke="#CFC2F4" stroke-width="0.8" stroke-linecap="round" stroke-linejoin="round"/>
    <path d="M17.2969 28.3069V47.4576" stroke="#CFC2F4" stroke-width="0.8" stroke-linecap="round" stroke-linejoin="round"/>
    <path d="M81.012 51.7651C84.0151 58.5807 84.3846 66.268 82.0484 73.3398C79.7128 80.4122 74.837 86.3668 68.3652 90.0526" stroke="#CFC2F4" stroke-width="0.8" stroke-linecap="round" stroke-linejoin="round"/>
    <path d="M27.856 48.1896C30.3856 44.0668 33.872 40.6148 38.0196 38.1262C42.1674 35.6377 46.854 34.186 51.6824 33.8943C56.5102 33.6026 61.3374 34.4796 65.7546 36.4507C70.1719 38.4219 74.0485 41.4291 77.0561 45.2174" stroke="#CFC2F4" stroke-width="0.8" stroke-linecap="round" stroke-linejoin="round"/>
    <path d="M41.8713 91.6498C36.4046 89.3578 31.7368 85.502 28.4538 80.5669C25.1709 75.6311 23.4192 69.8357 23.4185 63.9083C23.4183 60.9497 23.8503 58.0069 24.7005 55.173" stroke="#CFC2F4" stroke-width="0.8" stroke-linecap="round" stroke-linejoin="round"/>
    <path d="M58.5498 93.5578C56.8894 93.9077 55.1924 94.0485 53.4972 93.9778C52.6762 93.9778 51.8507 93.9449 51.0378 93.8799" stroke="#CFC2F4" stroke-width="0.8" stroke-linecap="round" stroke-linejoin="round"/>
    <path d="M82.0802 50.685C79.7282 53.037 76.6177 56.4424 73.4048 60.3203C72.6033 61.2911 71.4621 61.9195 70.2141 62.0774C68.9654 62.2359 67.7035 61.9119 66.6854 61.1723C63.8654 59.121 61.9574 57.645 58.8621 55.377" stroke="#CFC2F4" stroke-width="0.8" stroke-linecap="round" stroke-linejoin="round"/>
    <path d="M51.0361 44.1418L52.01 42.7535" stroke="#CFC2F4" stroke-width="0.8" stroke-linecap="round" stroke-linejoin="round"/>
    <path d="M76.5156 45.5534C73.8724 47.847 71.504 50.4387 69.457 53.277C69.457 53.277 63.469 48.2629 59.3663 45.7656C55.1297 43.1869 54.133 47.4456 53.6663 43.9056C53.317 41.253 53.5943 40.773 54.0023 40.5582C56.1497 39.4265 55.1625 37.4572 54.0383 38.3982C53.3695 38.9584 53.2943 38.714 53.2659 38.1904C53.1547 36.1694 51.2619 33.1378 49.2029 37.8942C46.2977 44.6016 52.0103 42.7536 52.0103 42.7536" stroke="#CFC2F4" stroke-width="0.8" stroke-linecap="round" stroke-linejoin="round"/>
    <path d="M51.0741 42.9493C51.1454 43.9776 50.9774 45.6342 49.9587 45.3936C47.3439 44.7759 46.2248 45.1864 44.7387 46.3409C41.7829 48.6386 35.7752 52.0403 35.7752 52.0403C32.2119 49.8929 29.6319 48.9689 26.3086 47.5409C24.548 49.4864 23.5254 51.9874 23.4185 54.6089C28.1553 56.6369 29.9705 57.7997 33.6778 59.6123C34.5082 60.0208 35.428 60.2141 36.3526 60.1742C37.2772 60.1344 38.177 59.8627 38.9691 59.3843C41.299 57.9721 43.4925 56.6729 45.8805 55.4129" stroke="#CFC2F4" stroke-width="0.8" stroke-linecap="round" stroke-linejoin="round"/>
    <path d="M79.1283 45.5736C77.6978 44.858 76.4239 45.0469 76.2527 46.1471C76.1056 47.0945 76.7485 48.2124 77.3599 48.9456C78.2131 50.0186 79.415 50.7594 80.7571 51.0399C81.0691 51.1272 81.4026 51.0946 81.6919 50.9487C81.9811 50.8027 82.2054 50.5539 82.3209 50.2511" stroke="#CFC2F4" stroke-width="0.8" stroke-linecap="round" stroke-linejoin="round"/>
    <path d="M45.1345 50.385C45.3944 54.3483 46.4085 58.2255 48.1225 61.8084C51.7857 62.7804 54.7579 62.5524 58.4659 61.4244C58.1741 58.6474 58.5404 55.8409 59.5339 53.2315" stroke="#CFC2F4" stroke-width="0.8" stroke-linecap="round" stroke-linejoin="round"/>
    <path d="M79.8119 50.7811C81.5134 50.1253 83.2623 49.6 85.044 49.2097C86.6406 48.9364 88.2637 48.8558 89.8793 48.9697C92.256 49.1099 92.6355 48.5724 90.1793 47.7337C89.2781 47.4255 84.672 46.7731 83.652 46.6297C82.02 46.4004 79.6098 46.1617 78.0119 46.1137C77.8907 46.114 77.7694 46.1215 77.6494 46.1364" stroke="#CFC2F4" stroke-width="0.8" stroke-linecap="round" stroke-linejoin="round"/>
    <path d="M76.2485 46.6631C76.2826 46.6417 81.8203 44.5789 84.0239 43.5684C86.5812 42.393 85.8927 43.3019 85.2359 44.0844C84.7534 44.6585 82.3679 46.2444 83.6519 46.6284" stroke="#CFC2F4" stroke-width="0.8" stroke-linecap="round" stroke-linejoin="round"/>
    <path d="M81.4441 50.1999C82.8967 49.8519 85.7641 50.1538 87.0355 50.2264C88.0675 50.2858 89.5675 50.6243 90.7195 50.7317C90.9835 50.7563 91.2715 50.3717 89.7355 49.7477C89.1588 49.5146 88.1426 49.0934 87.6626 48.9456" stroke="#CFC2F4" stroke-width="0.8" stroke-linecap="round" stroke-linejoin="round"/>
    <path d="M81.3823 50.2263C82.5773 50.2308 83.7678 50.3603 84.9356 50.6129C85.883 50.8289 87.4707 51.4282 88.487 51.7049C88.7396 51.7737 89.087 51.4409 87.683 50.5649C87.5769 50.4941 87.3779 50.3754 87.143 50.2365" stroke="#CFC2F4" stroke-width="0.8" stroke-linecap="round" stroke-linejoin="round"/>
    <path d="M23.5243 53.5409C21.5864 53.2536 19.6271 53.1372 17.6689 53.1929C16.0516 53.3165 14.4535 53.6225 12.9049 54.1049C10.6255 54.8136 10.1259 54.3651 12.3169 52.9681C16.0164 51.2045 19.8429 49.7206 23.7643 48.5287C24.3206 48.3767 24.9094 48.3935 25.4563 48.5767" stroke="#CFC2F4" stroke-width="0.8" stroke-linecap="round" stroke-linejoin="round"/>
    <path d="M18.4483 50.349C19.6003 49.665 16.8775 48.7068 16.2769 48.2647C15.4615 47.6635 14.5622 46.9511 17.3329 47.4727C19.6537 47.9453 22.0029 48.2656 24.3655 48.4315" stroke="#CFC2F4" stroke-width="0.8" stroke-linecap="round" stroke-linejoin="round"/>
    <path d="M15.0407 53.565C14.5354 53.877 13.53 54.6109 13.2407 54.8282C11.9144 55.809 12.2693 56.1141 12.5207 56.0282C13.5192 55.6871 15.0527 54.9602 15.9767 54.6722C17.4767 54.2042 20.3561 53.2082 21.7241 53.3522" stroke="#CFC2F4" stroke-width="0.8" stroke-linecap="round" stroke-linejoin="round"/>
    <path d="M15.8932 54.693C15.6892 54.897 15.5332 55.065 15.4372 55.149C14.2852 56.325 14.6913 56.5738 14.9212 56.445C15.8383 55.929 17.2378 54.9835 18.1132 54.5502C19.1828 54.0452 20.2949 53.6356 21.4366 53.3262" stroke="#CFC2F4" stroke-width="0.8" stroke-linecap="round" stroke-linejoin="round"/>
    <path d="M46.6703 119.2C46.5313 117.8 46.2251 116.422 45.7583 115.095C43.1978 115.827 40.4834 115.827 37.9229 115.095C34.5275 116.079 30.6515 119.09 28.6235 120.986C35.4389 120.986 39.9509 120.926 45.1343 120.914C45.3515 120.915 45.5665 120.869 45.7649 120.78C45.9634 120.692 46.141 120.563 46.286 120.401C46.431 120.239 46.5401 120.048 46.6064 119.842C46.6726 119.635 46.6944 119.416 46.6703 119.2Z" stroke="#CFC2F4" stroke-width="0.8" stroke-linecap="round" stroke-linejoin="round"/>
    <path d="M49.8625 96.3153C49.9414 99.6659 47.2691 106.309 45.7571 115.109" stroke="#CFC2F4" stroke-width="0.8" stroke-linecap="round" stroke-linejoin="round"/>
    <path d="M37.9231 115.097L41.8237 94.9461" stroke="#CFC2F4" stroke-width="0.8" stroke-linecap="round" stroke-linejoin="round"/>
    <path d="M54.9971 81.4871L50.2817 96.2459C47.1745 96.7928 43.9741 96.2231 41.2463 94.6378L48.1223 61.821" stroke="#CFC2F4" stroke-width="0.8" stroke-linecap="round" stroke-linejoin="round"/>
    <path d="M84.7203 108.965L82.4883 107.765C81.6003 110.68 80.5304 111.544 77.7843 113.344C79.1643 115.408 78.8403 116.428 78.6843 117.027C77.2317 118.395 76.5009 118.378 75.4929 120.994H80.5456C81.2239 121.009 81.8927 120.829 82.4731 120.478C83.0529 120.126 83.5209 119.615 83.8216 119.007C84.5794 117.365 85.211 114.04 85.9209 112.084C86.142 111.507 86.1413 110.87 85.9197 110.293C85.698 109.717 85.2704 109.244 84.7203 108.965Z" stroke="#CFC2F4" stroke-width="0.8" stroke-linecap="round" stroke-linejoin="round"/>
    <path d="M77.7964 113.345L63.3376 97.7579" stroke="#CFC2F4" stroke-width="0.8" stroke-linecap="round" stroke-linejoin="round"/>
    <path d="M69.6248 92.8259C71.6584 94.499 73.4976 96.395 75.1088 98.4779C77.3149 101.503 82.4881 107.762 82.4881 107.762" stroke="#CFC2F4" stroke-width="0.8" stroke-linecap="round" stroke-linejoin="round"/>
    <path d="M52.01 70.1116L57.53 91.1704C57.9494 92.7689 58.8052 94.2184 60.002 95.3578L62.7525 97.9763C65.6837 97.0314 68.1917 95.0906 69.8408 92.4898L67.3574 88.3845L65.7854 72.3777C65.2081 66.4156 61.6492 62.3047 58.466 61.4224" stroke="#CFC2F4" stroke-width="0.8" stroke-linecap="round" stroke-linejoin="round"/>
    <path d="M56.2939 44.9016C54.2716 47.4448 52.6636 50.2917 51.5305 53.337C49.9345 50.709 48.3726 45.1265 48.3726 45.1265" stroke="#CFC2F4" stroke-width="0.8" stroke-linecap="round" stroke-linejoin="round"/>
    <path d="M3.19775 121H98.639" stroke="#CFC2F4" stroke-width="0.8" stroke-linecap="round" stroke-linejoin="round"/>
    <path d="M87.2276 22.1755C82.4763 21.2755 77.9434 24.0703 77.1224 28.4149C76.8432 29.937 77.0403 31.5083 77.687 32.9143L75.635 36.2743L79.523 35.4823C80.8285 36.7341 82.4719 37.5767 84.2504 37.9063C89.0017 38.8063 93.5346 36.0115 94.3556 31.6669C95.183 27.3229 91.9916 23.0755 87.2276 22.1755Z" stroke="#CFC2F4" stroke-width="0.8" stroke-linecap="round" stroke-linejoin="round"/>
    <path d="M85.8356 31.0189C85.8476 30.4789 86.0547 30.0848 86.7236 29.1949C88.1667 27.2755 87.292 25.953 86.0636 25.8949C85.8438 25.8851 85.6246 25.9238 85.4219 26.0084C85.2191 26.0929 85.0373 26.2211 84.8895 26.384C84.7417 26.5468 84.6312 26.7402 84.5667 26.9504C84.5023 27.1606 84.4853 27.3825 84.5162 27.6001" stroke="#CFC2F4" stroke-width="0.8" stroke-linecap="round" stroke-linejoin="round"/>
    <path d="M80.6277 89.1785H83.2197" stroke="#CFC2F4" stroke-width="0.8" stroke-linecap="round" stroke-linejoin="round"/>
    <path d="M87.8154 89.1665H90.4074" stroke="#CFC2F4" stroke-width="0.8" stroke-linecap="round" stroke-linejoin="round"/>
    <path d="M85.5181 84.2825V86.8745" stroke="#CFC2F4" stroke-width="0.8" stroke-linecap="round" stroke-linejoin="round"/>
    <path d="M85.5293 91.4705V94.0618" stroke="#CFC2F4" stroke-width="0.8" stroke-linecap="round" stroke-linejoin="round"/>
    <path d="M82.0559 85.7225L83.8919 87.5465" stroke="#CFC2F4" stroke-width="0.8" stroke-linecap="round" stroke-linejoin="round"/>
    <path d="M87.1558 90.7985L88.9918 92.6218" stroke="#CFC2F4" stroke-width="0.8" stroke-linecap="round" stroke-linejoin="round"/>
    <path d="M88.9796 85.7104L87.1436 87.5464" stroke="#CFC2F4" stroke-width="0.8" stroke-linecap="round" stroke-linejoin="round"/>
    <path d="M83.9041 90.7985L82.0681 92.6338" stroke="#CFC2F4" stroke-width="0.8" stroke-linecap="round" stroke-linejoin="round"/>
    <path d="M3.24546 28.3069C2.85142 28.306 2.46451 28.2017 2.12352 28.0043C1.78253 27.8068 1.49939 27.5233 1.30247 27.1819C1.1056 26.8406 1.0019 26.4535 1.00171 26.0595C1.00152 25.6655 1.10491 25.2782 1.30146 24.9367L14.4648 2.12475C14.6626 1.78274 14.9469 1.49877 15.2891 1.30135C15.6313 1.10393 16.0195 1 16.4145 1C16.8096 1 17.1977 1.10393 17.5399 1.30135C17.8822 1.49877 18.1665 1.78274 18.3642 2.12475L31.5276 24.9367C31.7248 25.2783 31.8288 25.6657 31.8289 26.0601C31.8291 26.4545 31.7255 26.842 31.5285 27.1837C31.3315 27.5253 31.0481 27.8092 30.7067 28.0067C30.3654 28.2042 29.978 28.3083 29.5836 28.3087L3.24546 28.3069Z" stroke="#CFC2F4" stroke-width="0.8" stroke-linecap="round" stroke-linejoin="round"/>
    <path d="M35.1389 15.1201C35.1602 15.3574 35.1106 15.5956 34.9965 15.8047C34.8824 16.0138 34.7088 16.1844 34.4978 16.2948C34.2867 16.4052 34.0477 16.4506 33.8108 16.4253C33.574 16.3999 33.35 16.3048 33.1672 16.1521C32.9844 15.9994 32.8509 15.7959 32.7838 15.5674C32.7166 15.3388 32.7187 15.0955 32.7898 14.8682C32.8609 14.6408 32.9978 14.4396 33.1833 14.2901C33.3687 14.1406 33.5943 14.0494 33.8315 14.0281C34.1495 14.0004 34.4655 14.0997 34.7105 14.3043C34.9555 14.5089 35.1096 14.8023 35.1389 15.1201Z" stroke="#CFC2F4" stroke-width="0.8" stroke-linecap="round" stroke-linejoin="round"/>
    <path d="M25.3782 102.497V107.345" stroke="#CFC2F4" stroke-width="0.8" stroke-linecap="round" stroke-linejoin="round"/>
    <path d="M27.8079 104.921H22.9485" stroke="#CFC2F4" stroke-width="0.8" stroke-linecap="round" stroke-linejoin="round"/>
    <path d="M53.7616 44.4696C53.9934 44.5942 54.2511 44.6616 54.5145 44.6663C54.7772 44.671 55.0374 44.6128 55.2736 44.4966C55.5092 44.3804 55.7145 44.2095 55.8705 43.9981C56.0271 43.7868 56.1313 43.5412 56.1736 43.2816C56.3587 43.6131 56.6523 43.8709 57.0048 44.0118C57.3572 44.1528 57.7475 44.1682 58.11 44.0557C58.4726 43.9433 58.7858 43.7096 58.9961 43.3939C59.2071 43.0783 59.3031 42.6997 59.2683 42.3216C59.5633 42.5335 59.9195 42.6422 60.2827 42.6311C60.6452 42.62 60.9945 42.4897 61.2755 42.2602C61.5572 42.0308 61.7549 41.7151 61.8389 41.3619C61.9229 41.0087 61.8881 40.6377 61.7397 40.3063C61.9873 40.3753 62.2469 40.3855 62.4995 40.3361C62.7515 40.2865 62.9884 40.1788 63.1911 40.0213C63.3938 39.8639 63.5574 39.6612 63.6679 39.4294C63.7785 39.1975 63.8334 38.9431 63.8277 38.6862C63.8239 38.4658 63.7759 38.2484 63.6875 38.0465C63.5991 37.8446 63.4715 37.6623 63.3117 37.5102C63.7437 37.4982 64.1536 37.3163 64.4524 37.004C64.7511 36.6918 64.9147 36.2744 64.9077 35.8422C64.9014 35.493 64.7858 35.1546 64.5768 34.8747C64.3684 34.5948 64.0766 34.3875 63.7437 34.2822C64.0905 34.1802 64.3955 33.9682 64.6115 33.6783C64.8281 33.3884 64.9444 33.036 64.9437 32.6742C64.938 32.2526 64.7707 31.8492 64.4757 31.5477C64.1808 31.2462 63.781 31.0698 63.3597 31.0549C63.6086 30.8296 63.7829 30.534 63.8593 30.2072C63.9364 29.8805 63.9117 29.5381 63.7892 29.2256C63.6673 28.9132 63.4526 28.6453 63.174 28.4576C62.8961 28.2699 62.5671 28.1713 62.2317 28.1749C62.0978 28.1778 61.9646 28.198 61.8357 28.2349C61.9898 27.906 62.0321 27.5354 61.9545 27.1803C61.8774 26.8253 61.6854 26.5056 61.4081 26.2707C61.1309 26.0358 60.7841 25.8987 60.421 25.8807C60.0585 25.8626 59.6997 25.9646 59.4003 26.1709C59.442 25.7939 59.3536 25.4141 59.1484 25.095C58.9431 24.7759 58.6349 24.5371 58.2742 24.4186C57.9142 24.3001 57.5239 24.3091 57.1696 24.4442C56.8153 24.5792 56.5185 24.8321 56.3283 25.1603C56.0606 23.3155 53.245 23.2726 52.9563 25.1483C52.7688 24.8188 52.4738 24.5636 52.1201 24.4257C51.7671 24.2878 51.3774 24.2754 51.0161 24.3907C50.6542 24.506 50.3441 24.7419 50.1357 25.059C49.9279 25.3761 49.8351 25.755 49.873 26.1323C49.5756 25.9233 49.2178 25.8179 48.8546 25.8323C48.4915 25.8468 48.1431 25.9803 47.8634 26.2123C47.5836 26.4443 47.388 26.7619 47.3066 27.1162C47.2251 27.4703 47.2625 27.8415 47.413 28.1723C47.056 28.0753 46.6769 28.1006 46.3361 28.2443C45.9952 28.388 45.7124 28.6418 45.5328 28.9652C45.3531 29.2885 45.2871 29.6627 45.3451 30.028C45.4032 30.3933 45.582 30.7286 45.853 30.9804C45.4615 30.9925 45.0872 31.1435 44.797 31.4064C44.5068 31.6693 44.3198 32.0269 44.2692 32.4153C44.2186 32.8036 44.308 33.1972 44.5212 33.5256C44.7345 33.8541 45.0577 34.0959 45.433 34.2077C45.0571 34.3167 44.7323 34.5559 44.5167 34.8826C44.3012 35.2092 44.209 35.6019 44.2567 35.9904C44.3043 36.3788 44.4887 36.7376 44.7768 37.0024C45.0649 37.2672 45.4379 37.4209 45.829 37.4357C45.5575 37.6861 45.3777 38.0202 45.3185 38.3847C45.2593 38.7493 45.324 39.1231 45.5023 39.4465C45.6806 39.7699 45.9622 40.0242 46.302 40.1688C46.6418 40.3133 47.0203 40.3397 47.377 40.2437C47.2521 40.507 47.1996 40.7988 47.2248 41.0892C47.2499 41.3795 47.3519 41.6579 47.5202 41.8957C47.6885 42.1337 47.9172 42.3224 48.1826 42.4428C48.4479 42.5631 48.7406 42.6107 49.0304 42.5806" stroke="#CFC2F4" stroke-width="0.8" stroke-linecap="round" stroke-linejoin="round"/>
    <path d="M67.2853 95.4539L64.1533 91.7219" stroke="#CFC2F4" stroke-width="0.8" stroke-linecap="round" stroke-linejoin="round"/>
    <path d="M46.8389 96.3058L48.1229 91.6498" stroke="#CFC2F4" stroke-width="0.8" stroke-linecap="round" stroke-linejoin="round"/>
    <path d="M56.2942 65.6004C58.0102 67.6757 59.9182 68.5517 61.9696 68.5277" stroke="#CFC2F4" stroke-width="0.8" stroke-linecap="round" stroke-linejoin="round"/>
</svg>
