<svg width="149" height="154" viewBox="0 0 149 154" fill="none" xmlns="http://www.w3.org/2000/svg">
    <path d="M103.074 36.4132C97.6342 35.6835 91.3253 34.9387 91.3253 34.9387C92.5557 35.1059 93.1941 37.7052 92.7837 40.73C92.3733 43.7549 91.0357 46.0797 89.8052 45.9125C89.0148 45.8061 88.4676 44.6813 88.2852 43.0853C87.5252 43.2525 86.75 43.3901 85.9596 43.5269C85.9596 43.5269 89.7748 49.4086 86.294 50.731C83.2691 51.8711 76.353 46.0341 76.353 46.0341C67.9704 50.2222 51.7245 53.4743 43.0371 55.1783C45.2484 54.8135 47.6028 65.4657 45.4372 66.0065C55.5598 64.1825 66.5952 61.5681 76.049 57.404C77.6906 59.8504 80.8979 62.7385 81.2627 65.7481C85.458 66.7082 90.5196 66.5841 93.1181 64.8513C94.3181 56.9176 93.8781 53.2511 92.9205 51.0198C96.3046 50.5404 99.607 49.6046 102.74 48.2382C111.041 44.7317 109.047 37.2308 103.074 36.4132Z" fill="#9CECDE"/>
    <path d="M88.2695 42.9485C88.6495 46.7182 90.7928 46.9006 92.1144 43.3749C90.8184 43.4306 89.5216 43.2868 88.2695 42.9485Z" fill="#8767E3"/>
    <path d="M90.7752 34.9971L90.6992 36.0155C90.8512 36.3043 91.916 36.5475 92.6145 36.5627C92.2952 35.4555 91.6608 34.6195 90.7752 34.9971Z" fill="#8767E3"/>
    <path d="M104.288 36.717C107.449 37.9027 110.9 42.0067 105.732 46.414C104.351 47.5069 102.786 48.3466 101.111 48.8941C102.179 53.7796 103.679 58.5609 105.591 63.1816C112.735 59.3663 120.122 57.5431 126.521 57.6615C117.816 44.9972 109.151 36.7474 104.288 36.717Z" fill="#8767E3"/>
    <path d="M98.604 105.586C98.452 105.997 98.3 106.407 98.1328 106.833L99.5616 106.042C99.2424 105.906 98.9232 105.754 98.604 105.586Z" fill="#8767E3"/>
    <path d="M87.0378 88.8382L85.7002 88.7014L85.1986 89.9934L84.0282 89.7534L79.3313 99.42C78.5368 101.058 77.1384 102.326 75.4288 102.955C73.7201 103.584 71.8337 103.527 70.1663 102.794L57.778 96.8208L51.7139 100.241C50.7867 107.339 56.2124 120.912 65.2718 125.275L85.5482 113.905C87.0074 108.571 89.0291 101.077 89.2723 100.074C87.7722 92.5559 87.553 91.4783 87.0378 88.8382Z" fill="#8767E3"/>
    <path d="M140.906 83.1973C137.698 88.7174 132.302 94.0959 125.326 98.2304C129.1 103.262 140.618 117.351 146.058 114.296C150.405 111.848 148.019 98.9896 140.906 83.1973Z" fill="#8767E3"/>
    <path d="M42.2422 56.5072C42.8654 56.2944 44.0358 55.8672 44.1118 55.8536C43.1998 54.7136 42.4854 55.0936 42.2422 56.5072Z" fill="#8767E3"/>
    <path d="M72.2226 25.2417C70.5775 25.2402 68.9652 25.7019 67.5702 26.5738C66.1752 27.4457 65.0539 28.6927 64.3344 30.1722C63.7587 29.5884 63.0272 29.1824 62.2272 29.0029C61.4271 28.8233 60.5923 28.8777 59.8223 29.1595C59.0523 29.4414 58.3797 29.9388 57.8846 30.5924C57.3895 31.246 57.0929 32.0282 57.0301 32.8457C56.9674 33.6633 57.1411 34.4816 57.5307 35.2031C57.9202 35.9246 58.5091 36.5189 59.227 36.9149C59.945 37.311 60.7617 37.4921 61.5798 37.4367C62.3979 37.3814 63.1827 37.0919 63.8408 36.6027C64.2614 37.9646 65.0079 39.2033 66.0156 40.2115C67.0231 41.2197 68.2614 41.9669 69.623 42.3884C70.9846 42.8099 72.4285 42.8929 73.8295 42.6303C75.2306 42.3676 76.5458 41.7672 77.6627 40.8812C77.5147 40.5608 77.3203 40.2642 77.0851 40.0012C76.9907 39.8749 76.8651 39.7754 76.7203 39.7124C73.8018 39.3924 74.0298 36.7331 75.717 37.2955C76.5226 37.5691 76.7203 37.4019 76.597 36.9755C75.685 34.7259 76.7034 29.421 80.9899 34.2851C81.0251 33.1111 80.8251 31.9419 80.4003 30.8468C79.9763 29.7516 79.3363 28.7529 78.5187 27.9096C77.7011 27.0663 76.7227 26.3956 75.641 25.9374C74.5595 25.4791 73.3971 25.2426 72.2226 25.2417Z" fill="#8767E3"/>
    <path d="M11.1301 73.8194C9.91413 73.6187 8.66947 73.6783 7.47824 73.9942C6.28702 74.3102 5.17636 74.8752 4.2197 75.6521C3.26304 76.429 2.48211 77.4003 1.92848 78.5011C1.37486 79.6019 1.06115 80.8084 1.00808 82.0396C0.955009 83.2708 1.16379 84.4988 1.62062 85.6437C2.07746 86.7885 2.77199 87.8229 3.65825 88.6789C4.5445 89.5357 5.60237 90.1942 6.76199 90.6118C7.92161 91.0286 9.1566 91.195 10.3853 91.0998C9.24596 85.3629 9.50132 79.4371 11.1301 73.8194Z" fill="#8767E3"/>
    <path d="M46.1802 64.7576C45.6026 64.9552 44.9802 65.1528 44.3105 65.3352C45.2074 66.4472 45.9218 66.1432 46.1802 64.7576Z" fill="#8767E3"/>
    <path d="M30.6203 91.0558C35.9638 87.7461 41.7176 85.15 47.7351 83.334C47.0828 82.9772 46.4624 82.5652 45.8806 82.1028C38.6692 83.2756 31.7978 85.9981 25.7402 90.0829C27.3488 90.4926 28.9777 90.8166 30.6203 91.0558Z" fill="#8767E3"/>
    <path d="M81.8695 124.48C81.2007 125.817 80.6695 126.76 80.6839 126.836C82.0175 133.917 84.5736 140.712 88.2384 146.916C88.7232 145.524 89.1192 144.103 89.424 142.66C87.2352 138.433 83.3135 128.295 81.8695 124.48Z" fill="#8767E3"/>
    <path d="M78.9658 56.0374L77.9169 59.8054C77.2329 58.9694 76.5641 58.1638 76.0625 57.4054C77.0353 56.963 78.0081 56.507 78.9658 56.0374Z" fill="#8767E3"/>
    <path d="M79.9395 41.3078L82.4195 42.6606C82.0683 42.1757 81.7779 41.6499 81.5531 41.095C81.0299 41.2499 80.4851 41.3217 79.9395 41.3078Z" fill="#8767E3"/>
    <path d="M99.5635 106.042C99.2435 105.906 98.9235 105.754 98.6035 105.586" stroke="#8767E3" stroke-width="0.8" stroke-linecap="round" stroke-linejoin="round"/>
    <path d="M85.5343 113.901L65.2731 125.27C56.2137 120.908 50.7728 107.335 51.7 100.236L57.7641 96.8159" stroke="#8767E3" stroke-width="0.8" stroke-linecap="round" stroke-linejoin="round"/>
    <path d="M72.6445 58.8174C75.2654 61.5678 77.4406 64.7115 79.0895 68.1344" stroke="#8767E3" stroke-width="0.8" stroke-linecap="round" stroke-linejoin="round"/>
    <path d="M44.2981 120.421C38.9097 120.138 33.6511 118.663 28.9008 116.104C24.1505 113.545 20.0266 109.964 16.8261 105.62C13.6255 101.276 11.4277 96.2766 10.391 90.9813C9.35433 85.686 9.50442 80.2267 10.8306 74.996C12.1567 69.7656 14.6259 64.8942 18.0604 60.7326C21.4949 56.5709 25.8093 53.2224 30.6931 50.928C35.5769 48.6337 40.9085 47.4505 46.3043 47.4637C51.7002 47.4769 57.026 48.6862 61.8985 51.0045" stroke="#8767E3" stroke-width="0.8" stroke-linecap="round" stroke-linejoin="round"/>
    <path d="M85.6563 113.491L84.8962 112.123C84.4338 111.291 83.6602 110.676 82.7458 110.414C81.8306 110.151 80.849 110.263 80.0161 110.724L71.596 115.405C70.7639 115.867 70.1492 116.641 69.8871 117.555C69.6248 118.471 69.7365 119.452 70.1976 120.285L87.3731 151.155C87.8059 151.933 88.5123 152.522 89.3547 152.809C90.1971 153.095 91.1164 153.059 91.9332 152.706C95.1004 151.329 98.1245 149.644 100.962 147.675C101.695 147.168 102.213 146.406 102.415 145.538C102.617 144.67 102.489 143.758 102.057 142.978L91.2036 123.458" stroke="#8767E3" stroke-width="0.8" stroke-linecap="round" stroke-linejoin="round"/>
    <path d="M104.469 36.7219C109.379 36.9491 117.938 45.1693 126.526 57.6471" stroke="#8767E3" stroke-width="0.8" stroke-linecap="round" stroke-linejoin="round"/>
    <path d="M140.906 83.1819C148.019 98.9743 150.388 111.845 146.058 114.281C140.554 117.377 126.377 102.606 114.382 81.2971C107.468 69.0153 102.782 57.2366 101.098 48.8765" stroke="#8767E3" stroke-width="0.8" stroke-linecap="round" stroke-linejoin="round"/>
    <path d="M105.584 63.1792C120.829 55.0326 137.226 55.9614 142.565 65.444C147.903 74.9266 140.209 89.4141 125.328 98.2447" stroke="#8767E3" stroke-width="0.8" stroke-linecap="round" stroke-linejoin="round"/>
    <path d="M142.989 114.493L99.5636 106.042L98.1348 106.833" stroke="#8767E3" stroke-width="0.8" stroke-linecap="round" stroke-linejoin="round"/>
    <path d="M65.273 125.27L62.3545 126.897C45.9238 134.222 34.3268 110.01 49.9543 101.209L51.7023 100.236" stroke="#8767E3" stroke-width="0.8" stroke-linecap="round" stroke-linejoin="round"/>
    <path d="M96.9336 50.2141L93.7871 58.7719" stroke="#8767E3" stroke-width="0.8" stroke-linecap="round" stroke-linejoin="round"/>
    <path d="M81.5508 41.095C81.5508 41.095 82.5364 44.0766 84.7732 43.7238C85.9733 43.535 87.1445 43.3142 88.2997 43.0838" stroke="#8767E3" stroke-width="0.8" stroke-linecap="round" stroke-linejoin="round"/>
    <path d="M76.3516 46.0374C76.3516 46.0374 83.2677 51.8735 86.2926 50.7191C89.7574 49.3967 85.9581 43.5142 85.9581 43.5142" stroke="#8767E3" stroke-width="0.8" stroke-linecap="round" stroke-linejoin="round"/>
    <path d="M74.0273 47.0374C77.0826 49.5606 83.1011 54.1327 87.3732 52.7223C91.1565 51.4735 89.8965 46.3686 88.0724 43.1013" stroke="#8767E3" stroke-width="0.8" stroke-linecap="round" stroke-linejoin="round"/>
    <path d="M42.2461 56.5072C42.8693 56.2944 44.0397 55.8672 44.1157 55.8536C43.2037 54.7136 42.4893 55.0936 42.2461 56.5072Z" stroke="#8767E3" stroke-width="0.8" stroke-linecap="round" stroke-linejoin="round"/>
    <path d="M90.7768 35.0147C92.4032 34.3155 93.24 37.4772 92.7832 40.73C92.3584 43.7549 91.036 46.0781 89.8048 45.9125C88.9991 45.8053 88.4367 44.6325 88.2695 42.9797" stroke="#8767E3" stroke-width="0.8" stroke-linecap="round" stroke-linejoin="round"/>
    <path d="M91.3242 34.9236C91.3242 34.9236 97.6443 35.6812 103.074 36.398C109.133 37.198 111.05 44.6894 102.74 48.223C99.6036 49.5788 96.3019 50.5142 92.9203 51.0047" stroke="#8767E3" stroke-width="0.8" stroke-linecap="round" stroke-linejoin="round"/>
    <path d="M89.8066 45.8972H100.081" stroke="#8767E3" stroke-width="0.8" stroke-linecap="round" stroke-linejoin="round"/>
    <path d="M85.4879 34.969C85.3343 34.3469 85.0375 33.7692 84.6215 33.2818C83.8255 32.4202 84.0263 37.4163 84.8191 40.3955C85.3039 42.2196 88.3304 43.4956 92.1145 43.39" stroke="#8767E3" stroke-width="0.8" stroke-linecap="round" stroke-linejoin="round"/>
    <path d="M87.2802 30.4242C87.4778 29.2842 87.7354 25.5705 86.5506 29.0714C86.2441 30.0158 86.0049 30.981 85.8361 31.9595C85.5137 33.5648 85.3961 35.2046 85.4865 36.8395" stroke="#8767E3" stroke-width="0.8" stroke-linecap="round" stroke-linejoin="round"/>
    <path d="M90.7305 36.0178C90.8825 36.3066 91.9161 36.5498 92.6153 36.565" stroke="#8767E3" stroke-width="0.8" stroke-linecap="round" stroke-linejoin="round"/>
    <path d="M89.5156 33.51C89.5764 33.3732 89.9716 32.5219 90.0172 32.4003C90.9773 30.3483 91.2821 30.9267 90.9437 33.3732C90.7157 35.3362 90.594 37.31 90.5788 39.2861" stroke="#8767E3" stroke-width="0.8" stroke-linecap="round" stroke-linejoin="round"/>
    <path d="M87.875 34.0571C88.1638 32.6171 88.6806 30.7282 88.835 30.3026C89.899 27.3234 90.7591 27.8394 90.115 30.8346C89.7462 32.5363 89.431 33.7835 89.235 34.9235" stroke="#8767E3" stroke-width="0.8" stroke-linecap="round" stroke-linejoin="round"/>
    <path d="M88.97 29.9834C89.3956 25.3329 87.9484 27.7026 87.3588 30.1506C87.0796 31.2722 86.866 32.4091 86.7188 33.5555" stroke="#8767E3" stroke-width="0.8" stroke-linecap="round" stroke-linejoin="round"/>
    <path d="M86.2949 33.5571C86.9557 33.6473 87.5885 33.8799 88.1502 34.2391C88.7118 34.5984 89.1886 35.0753 89.5478 35.6372" stroke="#8767E3" stroke-width="0.8" stroke-linecap="round" stroke-linejoin="round"/>
    <path d="M34.5415 60.824C34.5415 60.824 32.9607 60.6112 30.5287 60.3072C27.975 59.9872 27.6102 58.9312 30.5591 58.924C30.8791 58.924 34.1159 58.8544 35.0735 58.8328C35.5904 58.8208 37.0616 58.6352 37.0648 58.164C37.072 56.8416 34.5423 54.0039 35.484 53.3455C36.0928 52.9215 37.9192 54.6951 39.116 55.9903C39.4581 56.3551 39.8996 56.6114 40.3861 56.7276C40.8724 56.8437 41.3821 56.8147 41.8521 56.644C41.9433 56.612 43.9953 55.8839 44.0865 55.8535" stroke="#8767E3" stroke-width="0.8" stroke-linecap="round" stroke-linejoin="round"/>
    <path d="M35.2075 60.7024C35.2075 60.7024 29.6442 61.6904 29.2794 61.7504C26.3769 62.2304 26.893 63.1968 29.4618 63.1184C31.9091 63.0448 34.9019 62.9968 34.9019 62.9968" stroke="#8767E3" stroke-width="0.8" stroke-linecap="round" stroke-linejoin="round"/>
    <path d="M35.8323 62.6777C34.0945 63.2772 32.3232 63.7746 30.5274 64.1674C27.6529 64.8146 28.2473 65.6594 30.8162 65.5202C32.4025 65.4748 33.983 65.3071 35.5435 65.0186" stroke="#8767E3" stroke-width="0.8" stroke-linecap="round" stroke-linejoin="round"/>
    <path d="M37.033 64.2776C35.6435 65.067 34.1633 65.6849 32.6249 66.1176C29.7681 66.9112 30.4201 67.7105 33.0657 67.4248C33.7801 67.3448 34.4026 67.2568 34.9202 67.1664C36.4242 66.9048 37.9138 66.6496 39.4339 66.4368C41.7273 66.0599 43.9883 65.5063 46.1964 64.7808" stroke="#8767E3" stroke-width="0.8" stroke-linecap="round" stroke-linejoin="round"/>
    <path d="M35.0566 59.8057C35.5126 62.3585 36.5767 63.9089 38.3999 65.7634" stroke="#8767E3" stroke-width="0.8" stroke-linecap="round" stroke-linejoin="round"/>
    <path d="M37.1699 59.1064C37.9279 60.0844 38.8813 60.8936 39.9695 61.4823C41.0578 62.0711 42.2567 62.4264 43.49 62.5257" stroke="#8767E3" stroke-width="0.8" stroke-linecap="round" stroke-linejoin="round"/>
    <path d="M76.0566 57.4127C77.6999 59.8575 80.8999 62.7424 81.2639 65.7481C85.4592 66.7081 90.5201 66.5841 93.1194 64.8512C94.9594 52.6766 92.937 50.5637 91.1433 48.2229" stroke="#8767E3" stroke-width="0.8" stroke-linecap="round" stroke-linejoin="round"/>
    <path d="M93.1177 64.8376C93.1177 64.8376 97.0378 74.885 101.113 86.1933C96.245 88.2493 90.9537 89.1045 85.6855 88.6861" stroke="#8767E3" stroke-width="0.8" stroke-linecap="round" stroke-linejoin="round"/>
    <path d="M90.731 75.5219L85.1821 89.9766C80.0004 88.9246 75.0155 87.0677 70.4082 84.4741C72.9763 74.8227 77.7947 69.381 81.2604 65.7329" stroke="#8767E3" stroke-width="0.8" stroke-linecap="round" stroke-linejoin="round"/>
    <path d="M71.6874 85.1733C71.1976 88.059 70.893 90.9735 70.7754 93.8983" stroke="#8767E3" stroke-width="0.8" stroke-linecap="round" stroke-linejoin="round"/>
    <path d="M71.1104 89.4445C71.1104 89.4445 58.6462 86.8148 53.5549 85.5684C48.4636 84.322 45.9091 82.1179 45.9091 82.1179C38.6979 83.2907 31.8269 86.0132 25.7695 90.0981C38.7802 93.2901 41.9571 89.5053 48.402 92.3021L70.1528 102.79C71.8203 103.522 73.7066 103.579 75.4153 102.95C77.1249 102.321 78.5234 101.053 79.3178 99.4151L84.0147 89.7485" stroke="#8767E3" stroke-width="0.8" stroke-linecap="round" stroke-linejoin="round"/>
    <path d="M99.3809 86.8606C100.199 91.0591 100.511 95.34 100.308 99.6129C100.261 100.36 100.129 101.1 99.9129 101.817C97.9129 108.478 90.3224 125.468 90.3224 125.468C88.4527 131.077 92.0392 135.94 88.2423 146.915C84.6086 140.696 82.0542 133.906 80.6878 126.834C80.6622 126.705 82.4622 123.634 83.6046 120.616C84.3966 118.526 89.1519 100.53 89.2607 100.082L87.0415 88.8198" stroke="#8767E3" stroke-width="0.8" stroke-linecap="round" stroke-linejoin="round"/>
    <path d="M65.5621 33.1753C65.5621 34.0202 65.3116 34.8459 64.8422 35.5483C64.3729 36.2508 63.7058 36.7982 62.9253 37.1215C62.1449 37.4448 61.2861 37.5293 60.4575 37.3645C59.6289 37.1997 58.8679 36.7929 58.2705 36.1956C57.6732 35.5983 57.2664 34.8372 57.1016 34.0086C56.9368 33.1801 57.0214 32.3212 57.3446 31.5408C57.6679 30.7603 58.2154 30.0932 58.9178 29.6239C59.6202 29.1545 60.446 28.9041 61.2908 28.9041C62.4233 28.9051 63.5091 29.3555 64.3099 30.1562C65.1106 30.9571 65.5611 32.0428 65.5621 33.1753Z" stroke="#8767E3" stroke-width="0.8" stroke-linecap="round" stroke-linejoin="round"/>
    <path d="M80.9891 34.285C81.0571 32.2827 80.4387 30.3173 79.2371 28.7143C78.0355 27.1112 76.3226 25.9664 74.3815 25.4697C72.4406 24.9729 70.3883 25.1538 68.5642 25.9824C66.7402 26.8111 65.2539 28.2378 64.3512 30.0264C63.4485 31.815 63.1838 33.8582 63.6007 35.8178C64.0176 37.7774 65.0911 39.5358 66.6437 40.8021C68.1962 42.0684 70.1347 42.7665 72.1381 42.7808C74.1415 42.7952 76.0898 42.125 77.6603 40.8811" stroke="#8767E3" stroke-width="0.8" stroke-linecap="round" stroke-linejoin="round"/>
    <path d="M34.7232 124.679C34.1508 124.518 33.5379 124.591 33.0192 124.882C32.5006 125.172 32.1184 125.657 31.9568 126.229L31.7288 127.005L30.9536 126.776C30.3807 126.615 29.7672 126.689 29.2481 126.979C28.729 127.27 28.3468 127.756 28.1855 128.329C28.0242 128.901 28.0972 129.515 28.3882 130.034C28.6793 130.553 29.1647 130.935 29.7376 131.097L34.8297 132.537L36.2697 127.445C36.4306 126.873 36.3582 126.261 36.0683 125.742C35.7785 125.224 35.2947 124.841 34.7232 124.679Z" stroke="#8767E3" stroke-width="0.8" stroke-linecap="round" stroke-linejoin="round"/>
    <path d="M131.907 50.9173C131.608 51.1474 131.247 51.2836 130.871 51.3087C130.494 51.3337 130.118 51.2466 129.792 51.0582C129.465 50.8699 129.201 50.5888 129.034 50.2504C128.866 49.9121 128.803 49.5318 128.852 49.1576C128.901 48.7834 129.06 48.4321 129.308 48.1481C129.557 47.8641 129.884 47.6602 130.249 47.5623C130.613 47.4643 130.998 47.4765 131.356 47.5976C131.714 47.7185 132.027 47.9429 132.257 48.2421C132.41 48.4405 132.522 48.6672 132.588 48.9092C132.654 49.1512 132.67 49.4038 132.638 49.6523C132.606 49.9009 132.524 50.1407 132.398 50.3577C132.274 50.5748 132.106 50.765 131.907 50.9173Z" stroke="#8767E3" stroke-width="0.8" stroke-linecap="round" stroke-linejoin="round"/>
    <path d="M10.2349 73.718C8.49237 73.617 6.75962 74.0418 5.26143 74.9373C3.76316 75.8329 2.56852 77.158 1.83232 78.7405C1.09611 80.3229 0.852315 82.0901 1.13252 83.8134C1.41273 85.5358 2.20402 87.135 3.40379 88.403C4.60357 89.6703 6.15656 90.5487 7.8614 90.9231C9.56615 91.2975 11.3442 91.1519 12.9649 90.5039C14.5857 89.8559 15.9744 88.7359 16.951 87.2886C17.9277 85.8422 18.4472 84.1358 18.4422 82.3901C18.44 80.1701 17.5886 78.0348 16.0626 76.4224C14.5366 74.81 12.4515 73.8424 10.2349 73.718Z" stroke="#8767E3" stroke-width="0.8" stroke-linecap="round" stroke-linejoin="round"/>
    <path d="M46.186 64.7849C45.6084 64.9825 44.986 65.1801 44.3164 65.3625C45.2132 66.4721 45.9276 66.1681 46.186 64.7849Z" stroke="#8767E3" stroke-width="0.8" stroke-linecap="round" stroke-linejoin="round"/>
    <path d="M79.9395 41.3228L82.4019 42.6604" stroke="#8767E3" stroke-width="0.8" stroke-linecap="round" stroke-linejoin="round"/>
    <path d="M79.939 41.3228C79.939 41.3228 87.1744 41.338 80.9879 34.3002C76.7942 29.5121 75.7286 34.5002 76.539 36.8251C76.7262 37.3627 76.6374 37.6251 75.7134 37.3099C74.0261 36.7499 73.7981 39.4075 76.7166 39.7267C76.9478 39.8569 77.1454 40.0391 77.2942 40.2587C79.1342 43.2676 79.0118 44.97 75.6526 46.3685C66.594 50.1229 58.629 52.1286 43.0039 55.1846C44.2327 54.9046 45.4752 58.5495 45.7872 59.7927C46.1384 61.192 46.8272 65.6729 45.436 66.0217C56.6234 64 68.9044 61.0368 78.9662 56.0511L77.9014 59.8055" stroke="#8767E3" stroke-width="0.8" stroke-linecap="round" stroke-linejoin="round"/>
    <path d="M83.7411 68.3777C83.7411 68.3777 82.4611 70.4145 79.0898 70.4145" stroke="#8767E3" stroke-width="0.8" stroke-linecap="round" stroke-linejoin="round"/>
    <path d="M29.5684 34.6042L32.958 41.9612" stroke="#8767E3" stroke-width="0.8" stroke-linecap="round" stroke-linejoin="round"/>
    <path d="M34.9355 36.5955L27.5938 39.9851" stroke="#8767E3" stroke-width="0.8" stroke-linecap="round" stroke-linejoin="round"/>
    <path d="M95.3833 8.08057L96.4474 10.4062C96.4474 10.4062 90.6568 14.1607 89.3496 10.847C91.8425 17.1551 98.0434 13.9175 98.0434 13.9175L99.1834 16.4255L101.372 10.3766L95.3833 8.08057Z" stroke="#8767E3" stroke-width="0.8" stroke-linecap="round" stroke-linejoin="round"/>
    <path d="M104.184 19.2368C102.803 20.9819 100.935 22.2784 98.8169 22.962C96.6993 23.6457 94.4256 23.6859 92.2848 23.0777C90.144 22.4694 88.2319 21.2399 86.7895 19.5448C85.3471 17.8495 84.4406 15.7649 84.183 13.5541C83.9254 11.3434 84.3294 9.10602 85.3439 7.12494C86.3583 5.14386 87.9367 3.50798 89.8807 2.42424C91.8248 1.34049 94.0464 0.857525 96.2649 1.03642C98.4833 1.21531 100.599 2.04803 102.344 3.42926C103.504 4.34535 104.472 5.4813 105.193 6.77205C105.914 8.0628 106.372 9.48298 106.543 10.9513C106.714 12.4197 106.594 13.9073 106.189 15.329C105.784 16.7508 105.103 18.0787 104.184 19.2368Z" stroke="#8767E3" stroke-width="0.8" stroke-linecap="round" stroke-linejoin="round"/>
    <path d="M120.538 133.173C120.791 133.154 121.046 133.21 121.268 133.335C121.49 133.46 121.67 133.648 121.785 133.875C121.9 134.102 121.946 134.358 121.915 134.611C121.885 134.865 121.78 135.102 121.615 135.296C121.448 135.489 121.229 135.629 120.984 135.698C120.739 135.766 120.478 135.761 120.236 135.682C119.994 135.603 119.781 135.453 119.623 135.253C119.466 135.053 119.371 134.81 119.352 134.557C119.331 134.217 119.442 133.883 119.664 133.625C119.886 133.366 120.199 133.205 120.538 133.173Z" stroke="#8767E3" stroke-width="0.8" stroke-linecap="round" stroke-linejoin="round"/>
    <path d="M123.655 127.732C123.909 127.713 124.163 127.769 124.385 127.894C124.607 128.019 124.787 128.207 124.902 128.434C125.017 128.661 125.063 128.917 125.033 129.17C125.002 129.424 124.897 129.661 124.732 129.855C124.565 130.048 124.346 130.188 124.101 130.257C123.856 130.325 123.596 130.32 123.353 130.241C123.111 130.162 122.898 130.012 122.741 129.812C122.584 129.612 122.489 129.369 122.469 129.116C122.448 128.776 122.56 128.441 122.781 128.183C123.002 127.924 123.316 127.763 123.655 127.732Z" stroke="#8767E3" stroke-width="0.8" stroke-linecap="round" stroke-linejoin="round"/>
    <path d="M116.981 127.413C117.235 127.394 117.489 127.45 117.712 127.575C117.933 127.7 118.113 127.888 118.228 128.115C118.344 128.342 118.389 128.598 118.359 128.851C118.328 129.105 118.224 129.342 118.058 129.536C117.892 129.729 117.672 129.869 117.428 129.938C117.182 130.006 116.922 130.001 116.68 129.922C116.437 129.843 116.224 129.693 116.067 129.493C115.91 129.293 115.815 129.05 115.796 128.797C115.774 128.457 115.886 128.122 116.108 127.864C116.328 127.605 116.642 127.444 116.981 127.413Z" stroke="#8767E3" stroke-width="0.8" stroke-linecap="round" stroke-linejoin="round"/>
    <path d="M118.365 128.599L122.485 129.116" stroke="#8767E3" stroke-width="0.8" stroke-linecap="round" stroke-linejoin="round"/>
    <path d="M121.162 133.28L123.017 130.058" stroke="#8767E3" stroke-width="0.8" stroke-linecap="round" stroke-linejoin="round"/>
    <path d="M129.14 131.016C129.14 132.738 128.629 134.422 127.672 135.855C126.715 137.287 125.355 138.403 123.763 139.062C122.172 139.721 120.421 139.894 118.731 139.558C117.042 139.222 115.49 138.393 114.271 137.174C113.054 135.956 112.224 134.404 111.888 132.714C111.552 131.024 111.725 129.273 112.384 127.682C113.043 126.091 114.16 124.73 115.592 123.773C117.025 122.816 118.709 122.306 120.431 122.306C122.74 122.309 124.954 123.228 126.587 124.86C128.219 126.493 129.138 128.707 129.14 131.016Z" stroke="#8767E3" stroke-width="0.8" stroke-linecap="round" stroke-linejoin="round"/>
    <path d="M30.6223 91.0558C35.9657 87.7461 41.7195 85.15 47.737 83.334C47.0848 82.9772 46.4644 82.5652 45.8826 82.1028C38.6712 83.2756 31.7997 85.9981 25.7422 90.0829C27.3508 90.4926 28.9797 90.8166 30.6223 91.0558Z" stroke="#8767E3" stroke-width="0.8" stroke-linecap="round" stroke-linejoin="round"/>
    <path d="M81.8695 124.48C81.2007 125.817 80.6695 126.76 80.6839 126.836C82.0175 133.917 84.5736 140.712 88.2384 146.916C88.7232 145.524 89.1192 144.103 89.424 142.66C87.2352 138.433 83.3135 128.295 81.8695 124.48Z" stroke="#8767E3" stroke-width="0.8" stroke-linecap="round" stroke-linejoin="round"/>
</svg>
