<svg width="129" height="154" viewBox="0 0 129 154" fill="none" xmlns="http://www.w3.org/2000/svg">
<path d="M99.2535 106.504C93.3175 106.184 83.0431 105.962 81.0135 105.774C79.9695 100.988 78.2879 93.4101 77.6215 89.8541C77.6327 89.8469 77.6439 89.8397 77.6543 89.8317C81.7735 87.1717 85.4671 79.8909 79.5543 69.6309C71.6751 69.6973 64.4471 71.4653 57.7879 75.5589C57.9551 77.0637 58.0919 78.3405 58.1679 79.1765C39.2439 87.7365 35.5959 90.2573 34.8967 94.4981C34.0847 99.4509 38.4007 106.522 51.0239 127.36C55.8239 128.48 63.1351 125.736 64.8255 121.372C62.8943 117.47 56.1935 103.968 54.0791 100.198C59.7775 98.1181 66.3991 95.5381 71.8615 92.9093C69.6279 95.0581 65.1887 99.5797 63.5791 101.49C65.9199 108.634 68.6559 116.93 71.6199 118.301C75.0815 119.901 76.6767 120.368 99.2383 120.368C101.828 118.046 101.248 109.868 99.2535 106.504Z" fill="#9CECDE"/>
<path d="M27.5845 49.0471C27.4325 47.6071 27.2349 47.5119 25.1845 46.5087C23.6949 45.7791 23.1677 45.5663 22.5853 46.5543L22.5741 46.5751C21.5493 45.9855 21.8997 46.1863 20.9741 45.6575C20.8228 45.5648 20.6544 45.5039 20.4788 45.4784C20.3033 45.4529 20.1244 45.4635 19.9531 45.5092C19.7817 45.5551 19.6215 45.6352 19.4821 45.7449C19.3427 45.8546 19.2271 45.9915 19.1423 46.1472C19.0574 46.303 19.0052 46.4744 18.9886 46.651C18.9721 46.8276 18.9916 47.0057 19.0461 47.1745C19.1006 47.3433 19.1888 47.4992 19.3054 47.6329C19.422 47.7665 19.5647 47.8751 19.7245 47.9519C19.4216 47.7959 19.0711 47.7595 18.7425 47.8495C18.4139 47.9397 18.1311 48.1499 17.95 48.4385C17.769 48.7271 17.7029 49.0733 17.7648 49.4083C17.8268 49.7434 18.0123 50.043 18.2845 50.2479C19.3468 50.8686 20.4418 51.4318 21.5645 51.9351C21.8357 52.084 22.1506 52.133 22.4542 52.0733C22.7577 52.0136 23.0307 51.8491 23.2253 51.6087C23.1594 52.247 23.2306 52.892 23.4341 53.5007C22.3549 55.5071 21.7013 56.9815 21.6741 58.3647C22.7837 59.0847 24.6341 60.0535 26.0365 60.9487C27.8443 58.6703 29.1824 56.0562 29.9733 53.2575C28.1117 52.5799 27.9773 50.8767 27.5845 49.0471Z" fill="#9CECDE"/>
<path d="M17.2949 52.8017C17.015 52.6117 16.8204 52.32 16.7522 51.9886C16.6841 51.6574 16.7478 51.3125 16.93 51.0274C17.1121 50.7424 17.3982 50.5396 17.7274 50.4622C18.0567 50.3848 18.4032 50.4389 18.6933 50.6129C19.8741 51.2177 20.6869 51.6265 21.7333 52.2241C23.3413 53.1425 22.2805 55.2025 20.5629 54.3841C19.446 53.9155 18.355 53.3874 17.2949 52.8017Z" fill="#9CECDE"/>
<path d="M16.5964 55.3553C16.3231 55.1768 16.13 54.8989 16.0582 54.5805C15.9863 54.2621 16.0412 53.9282 16.2112 53.6496C16.3813 53.3709 16.6532 53.1695 16.9692 53.0878C17.2853 53.0061 17.6206 53.0508 17.9044 53.2121C18.7044 53.5825 19.9236 54.1721 20.8836 54.6865C22.4596 55.5321 21.4908 57.5457 19.7892 56.7993C18.6959 56.385 17.6296 55.9027 16.5964 55.3553Z" fill="#9CECDE"/>
<path d="M106.567 4.82532C106.371 2.23572 104.319 3.05572 103.911 4.27412C103.879 1.79412 101.611 2.33172 101.16 3.69252C101.113 1.92292 98.7809 2.02932 98.4561 3.50692C98.1745 2.20772 95.8161 2.30692 95.8337 4.00932C95.8489 4.64372 95.8337 5.12931 95.8489 5.78931C94.7537 5.91731 94.6625 6.45731 94.5569 8.09811C94.4049 10.3629 94.3897 10.5909 95.5601 11.3509C97.0617 12.3301 98.3057 13.5397 97.9921 15.3029C100.839 15.8092 103.759 15.742 106.58 15.1053C106.58 10.5013 106.624 5.58851 106.567 4.82532Z" fill="#9CECDE"/>
<path d="M72.5167 36.021C72.2343 35.6737 72.0591 35.2512 72.0127 34.8057C71.9671 34.3601 72.0527 33.9108 72.2583 33.513C73.4895 31.5826 71.7567 30.4578 71.0583 31.9474C70.3591 33.4522 70.1783 31.2634 70.6023 29.637C68.5551 29.626 66.5167 29.9128 64.5519 30.4882C63.4727 37.8298 64.4911 39.9122 67.8199 38.909C68.5639 38.6706 69.2863 38.3707 69.9799 38.0122C69.4895 39.2013 68.6727 40.2274 67.6239 40.9722C67.1895 43.417 65.8751 45.6181 63.9287 47.1602C66.3455 49.6682 72.8511 47.8746 75.6175 40.5786C74.6439 40.3099 73.7983 39.7041 73.2303 38.8693C72.6623 38.0345 72.4095 37.025 72.5167 36.021Z" fill="#9CECDE"/>
<path d="M106.549 12.9926C106.534 13.7526 106.534 14.4822 106.549 15.1206C107.568 14.8166 108.039 14.4518 108.115 14.087C108.254 13.431 106.978 12.907 106.549 12.9926Z" fill="#8767E3"/>
<path d="M101.335 107.749C100.854 107.736 100.373 107.762 99.8955 107.825C101.233 111.139 101.309 116.277 100.216 118.952C101.976 121.308 107.176 124.864 111.22 125.944C110.927 119.59 104.132 110.333 101.335 107.749Z" fill="#8767E3"/>
<path d="M97.612 13.3273C97.352 13.3201 96.332 13.5225 96.332 14.2241C96.332 14.6041 96.8032 15.0297 97.9584 15.3185C98.0832 14.6347 97.96 13.9289 97.612 13.3273Z" fill="#8767E3"/>
<path d="M80.2686 55.7201C80.4814 58.8665 80.8158 62.6209 80.8158 65.22C81.971 61.1617 83.3846 56.2521 84.2054 53.5312L80.2686 55.7201Z" fill="#8767E3"/>
<path d="M74.2342 25.3202C74.2342 24.2866 72.8966 23.937 72.1822 25.0618C72.1214 24.089 70.5406 23.8618 69.7654 25.1834C69.5982 24.1346 67.8198 24.3626 67.1966 25.5482C67.0142 24.621 65.4942 25.1378 65.2358 26.521C64.9622 27.9802 64.719 29.3026 64.5518 30.4882C66.5158 29.9107 68.5542 29.6239 70.6014 29.637C70.1758 31.2482 70.3614 33.4218 71.0574 31.9474C71.7414 30.473 73.4894 31.5826 72.2574 33.513C72.059 33.9126 71.9774 34.3604 72.023 34.8044C72.0694 35.2483 72.2398 35.6702 72.5158 36.021C72.6982 32.8442 75.1606 28.725 75.9206 27.053C76.955 24.7882 75.3894 24.1802 74.2342 25.3202Z" fill="#8767E3"/>
<path d="M62.1348 97.1246C62.5908 98.4774 63.0772 99.9518 63.5748 101.487C65.3684 99.359 70.5516 94.3278 72.4212 92.6406C69.1572 94.2366 65.5836 95.7718 62.1348 97.1246Z" fill="#8767E3"/>
<path d="M67.8236 38.9084C67.8116 39.6015 67.7452 40.2927 67.626 40.9756C68.678 40.2343 69.4956 39.2071 69.982 38.0156C69.2868 38.3688 68.5652 38.6674 67.8236 38.9084Z" fill="#8767E3"/>
<path d="M64.1113 122.722C64.8353 123.283 65.4977 123.92 66.0873 124.622C62.5609 132.982 55.0065 140.019 52.0273 141.889C52.3249 136.98 53.3388 132.141 55.0369 127.525C58.4569 127.069 62.3041 125.336 64.1113 122.722Z" fill="#8767E3"/>
<path d="M56.0704 60.9199C54.5048 62.8047 50.1576 67.4711 46.084 70.1615C49.6953 68.9948 53.2245 67.5877 56.648 65.9495C56.4352 64.1559 56.2376 62.4231 56.0704 60.9199Z" fill="#8767E3"/>
<path d="M29.7282 51.2507C29.3938 51.0531 28.8162 51.2963 28.3906 51.9195C28.7407 52.5481 29.3065 53.0286 29.9834 53.2723C30.2298 52.0867 30.0634 51.4483 29.7282 51.2507Z" fill="#8767E3"/>
<path d="M26.0348 60.9641C25.3356 61.7545 24.8028 61.9841 24.454 61.8761C23.9668 61.7257 23.9068 60.8121 24.1956 59.8545C24.8188 60.2193 25.442 60.5841 26.0348 60.9641Z" fill="#8767E3"/>
<path d="M27.9654 19.2549C27.3422 20.3949 26.7798 21.5045 26.263 22.5533C22.1742 30.9893 21.3686 36.5677 21.383 40.7325C21.3982 42.7845 21.5958 44.4869 21.703 46.0373V46.0525C21.9918 46.2197 22.263 46.3869 22.5998 46.5845C23.2078 45.6245 23.7094 45.8093 25.199 46.5389C27.251 47.5421 27.4486 47.6333 27.599 49.0773C27.6142 49.2597 27.6294 49.4269 27.6598 49.5941C29.0886 48.7885 30.715 47.9829 32.5694 46.7941C36.0806 44.5293 40.3062 40.8205 45.1246 32.7797C45.7326 31.7613 46.3558 30.6997 46.979 29.5421L27.9654 19.2549ZM34.1062 35.8989L33.1334 40.5197L31.0238 36.2941L26.3422 36.8261L29.7022 33.4973L27.7566 29.1957L31.9518 31.3557L35.4326 28.1941L34.6726 32.8605L38.7766 35.1861L34.1062 35.8989Z" fill="#8767E3"/>
<path d="M14.5283 117.478C17.0551 117.478 19.1035 115.43 19.1035 112.902C19.1035 110.375 17.0551 108.327 14.5283 108.327C12.0015 108.327 9.95312 110.375 9.95312 112.902C9.95312 115.43 12.0015 117.478 14.5283 117.478Z" fill="#8767E3"/>
<path d="M21.7029 58.4103C21.7333 57.0271 22.3869 55.5527 23.4629 53.5463C23.2392 52.8045 23.1824 52.0224 23.2968 51.2561C23.4112 50.4899 23.6939 49.7583 24.1245 49.1143C23.8518 49.5359 23.5342 49.9267 23.1773 50.2799C23.6333 51.2071 22.8885 52.6207 21.5661 51.9519L21.7485 52.2407C23.3597 53.1527 22.2957 55.2199 20.5781 54.4007L20.8981 54.6895C22.4789 55.5255 21.4909 57.5471 19.7885 56.8023C19.0437 56.4679 18.4357 56.2247 17.9341 56.0119C16.6269 57.0607 15.0005 57.3039 12.2949 56.9239L24.0293 63.2775C22.3565 61.3743 21.6573 59.9455 21.7029 58.4103Z" fill="#8767E3"/>
<path d="M11.7472 56.9668L8.88965 60.706L22.7064 68.1996L24.2872 63.7612L11.7472 56.9668Z" fill="#8767E3"/>
<path d="M26.0347 60.9639C24.5947 60.0215 22.9339 59.1855 21.6875 58.3799" stroke="#8767E3" stroke-width="0.8" stroke-linecap="round" stroke-linejoin="round"/>
<path d="M64.4916 30.9744L61.634 1L39.5332 56.4192" stroke="#8767E3" stroke-width="0.8" stroke-linecap="round" stroke-linejoin="round"/>
<path d="M65.8443 45.2923L65.2363 38.7715" stroke="#8767E3" stroke-width="0.8" stroke-linecap="round" stroke-linejoin="round"/>
<path d="M97.8096 106.427L118.588 54.3213L82.0928 60.7661" stroke="#8767E3" stroke-width="0.8" stroke-linecap="round" stroke-linejoin="round"/>
<path d="M76.0732 119.682L79.25 153L92.2764 120.335" stroke="#8767E3" stroke-width="0.8" stroke-linecap="round" stroke-linejoin="round"/>
<path d="M34.9124 68.002L22.2812 99.6788L34.9276 97.4444" stroke="#8767E3" stroke-width="0.8" stroke-linecap="round" stroke-linejoin="round"/>
<path d="M26.2786 22.5837L18.3746 18.3125C12.0546 29.9861 17.8274 38.8325 21.3994 40.7629" stroke="#8767E3" stroke-width="0.8" stroke-linecap="round" stroke-linejoin="round"/>
<path d="M31.0361 36.3092L26.3545 36.826L29.6985 33.5124L27.7529 29.2108L31.9481 31.3692L35.4289 28.1924L34.6689 32.8436L38.7729 35.1844L34.1065 35.8988L33.1641 40.5196L31.0361 36.3092Z" stroke="#8767E3" stroke-width="0.8" stroke-linecap="round" stroke-linejoin="round"/>
<path d="M44.9283 32.6621L53.0299 37.0701C46.7035 48.7437 36.1435 48.7437 32.5859 46.8133" stroke="#8767E3" stroke-width="0.8" stroke-linecap="round" stroke-linejoin="round"/>
<path d="M20.8109 130.309C25.7633 130.309 29.7781 126.295 29.7781 121.342C29.7781 116.389 25.7633 112.375 20.8109 112.375C15.8585 112.375 11.8438 116.389 11.8438 121.342C11.8438 126.295 15.8585 130.309 20.8109 130.309Z" stroke="#8767E3" stroke-width="0.8" stroke-linecap="round" stroke-linejoin="round"/>
<path d="M118.618 32.2965C120.146 32.2965 121.384 31.0579 121.384 29.5301C121.384 28.0022 120.146 26.7637 118.618 26.7637C117.09 26.7637 115.852 28.0022 115.852 29.5301C115.852 31.0579 117.09 32.2965 118.618 32.2965Z" stroke="#8767E3" stroke-width="0.8" stroke-linecap="round" stroke-linejoin="round"/>
<path d="M11.1851 78.3682C11.9658 78.3682 12.5987 77.7354 12.5987 76.9546C12.5987 76.1739 11.9658 75.541 11.1851 75.541C10.4044 75.541 9.77148 76.1739 9.77148 76.9546C9.77148 77.7354 10.4044 78.3682 11.1851 78.3682Z" stroke="#8767E3" stroke-width="0.8" stroke-linecap="round" stroke-linejoin="round"/>
<path d="M83.4761 8.93457L82.0625 14.589L86.3489 13.829L84.9353 19.4834" stroke="#8767E3" stroke-width="0.8" stroke-linecap="round" stroke-linejoin="round"/>
<path d="M20.5637 54.3829C22.2837 55.1989 23.3437 53.1389 21.7341 52.2229C20.5341 51.5405 19.6669 51.1125 18.6941 50.6117C18.4043 50.4443 18.0611 50.3952 17.736 50.4746C17.4109 50.5539 17.1288 50.7555 16.9486 51.0376C16.7685 51.3196 16.704 51.6603 16.7686 51.9887C16.8333 52.3171 17.0221 52.6078 17.2957 52.8005C18.0701 53.2893 18.9853 53.6341 20.5637 54.3829Z" stroke="#8767E3" stroke-width="0.8" stroke-linecap="round" stroke-linejoin="round"/>
<path d="M22.6157 46.5995C22.0077 46.2347 21.5685 45.9883 20.9741 45.6395C20.6936 45.4563 20.3529 45.3895 20.024 45.4533C19.6952 45.517 19.4041 45.7063 19.2124 45.981C19.0207 46.2556 18.9434 46.5942 18.9971 46.9249C19.0507 47.2555 19.231 47.5523 19.4997 47.7523C20.1498 48.1861 20.8305 48.5722 21.5365 48.9075" stroke="#8767E3" stroke-width="0.8" stroke-linecap="round" stroke-linejoin="round"/>
<path d="M19.803 56.7994C21.4902 57.5442 22.4774 55.525 20.8974 54.6866C19.7262 54.065 18.8582 53.673 17.9182 53.2274C17.6346 53.0681 17.3002 53.025 16.9854 53.1072C16.6706 53.1894 16.4 53.3906 16.2306 53.6684C16.0612 53.9462 16.0062 54.2788 16.0771 54.5963C16.1481 54.9138 16.3394 55.1914 16.6109 55.3706C17.3709 55.8106 18.2526 56.1154 19.803 56.7994Z" stroke="#8767E3" stroke-width="0.8" stroke-linecap="round" stroke-linejoin="round"/>
<path d="M21.5042 48.9712C20.881 48.6368 20.3306 48.3848 19.7258 48.0592C19.4356 47.879 19.0866 47.8188 18.7528 47.8913C18.4189 47.9637 18.1263 48.1631 17.9368 48.4474C17.7473 48.7316 17.6758 49.0784 17.7373 49.4144C17.7989 49.7505 17.9887 50.0494 18.2666 50.248C19.0562 50.7664 19.957 51.1384 21.5466 51.9352C22.8714 52.5984 23.6138 51.1904 23.1578 50.2632" stroke="#8767E3" stroke-width="0.8" stroke-linecap="round" stroke-linejoin="round"/>
<path d="M28.3758 51.9202C28.8166 51.297 29.391 51.0594 29.7286 51.2514C30.331 51.5954 30.3814 53.349 28.5126 57.0426C26.5206 60.9794 25.1222 62.0922 24.439 61.8762C23.967 61.7266 23.8918 60.797 24.1806 59.8546" stroke="#8767E3" stroke-width="0.8" stroke-linecap="round" stroke-linejoin="round"/>
<path d="M29.9842 53.2731C28.9506 52.8475 27.9042 52.0883 27.613 49.0779C27.4714 47.6379 27.2642 47.5411 25.213 46.5395C22.813 45.3675 22.9481 45.5795 21.1393 49.8379C20.6945 50.8851 22.325 51.9659 24.2098 48.9259C22.7354 51.2515 23.0097 53.5659 24.3617 55.0363" stroke="#8767E3" stroke-width="0.8" stroke-linecap="round" stroke-linejoin="round"/>
<path d="M103.584 7.18596C103.434 9.08596 101.129 9.14676 101.137 7.30756C101.142 5.93956 101.201 4.96678 101.258 3.87238C101.354 2.04838 103.787 2.06358 103.842 3.56838C103.878 4.48038 103.724 5.43796 103.584 7.18596Z" stroke="#8767E3" stroke-width="0.8" stroke-linecap="round" stroke-linejoin="round"/>
<path d="M95.8484 5.78985C95.8332 5.12105 95.8436 4.63306 95.8332 3.99466C95.8052 2.26186 98.274 2.18346 98.3868 3.62986C98.4388 4.3687 98.4388 5.11025 98.3868 5.84905" stroke="#8767E3" stroke-width="0.8" stroke-linecap="round" stroke-linejoin="round"/>
<path d="M106.2 7.6271C106.01 9.4823 103.776 9.4815 103.844 7.6879C103.896 6.3655 103.979 5.4231 104.057 4.3743C104.189 2.6143 106.55 2.6871 106.55 4.1343C106.55 5.0127 106.374 5.9407 106.2 7.6271Z" stroke="#8767E3" stroke-width="0.8" stroke-linecap="round" stroke-linejoin="round"/>
<path d="M98.4482 5.83355C98.4634 5.11915 98.5235 4.51115 98.5395 3.82715C98.5827 1.97275 101.059 1.94235 101.154 3.46235C101.212 4.38955 101.078 5.36235 100.987 7.14235C100.992 7.40779 100.913 7.66819 100.759 7.88467C100.605 8.10123 100.386 8.26243 100.133 8.34435C99.881 8.42627 99.6082 8.42459 99.357 8.33947C99.105 8.25435 98.8882 8.09043 98.737 7.87195" stroke="#8767E3" stroke-width="0.8" stroke-linecap="round" stroke-linejoin="round"/>
<path d="M97.597 13.3267C96.837 13.4483 96.3506 13.8131 96.3506 14.1931C96.3506 14.8771 97.825 15.6955 101.944 15.6219C106.322 15.5419 107.98 14.7707 108.131 14.0715C108.239 13.5699 107.599 13.1115 106.641 12.9619" stroke="#8767E3" stroke-width="0.8" stroke-linecap="round" stroke-linejoin="round"/>
<path d="M97.9768 15.3033C98.1136 14.1937 97.9712 12.9401 95.5296 11.3665C94.3568 10.6105 94.3736 10.3785 94.5264 8.11366C94.7072 5.43846 94.816 5.66406 99.3904 5.89446C100.515 5.95126 100.637 7.88566 97.08 8.25046C99.816 7.94646 101.686 9.19286 102.28 11.0321" stroke="#8767E3" stroke-width="0.8" stroke-linecap="round" stroke-linejoin="round"/>
<path d="M106.565 15.1057C106.474 11.9745 106.805 6.92809 106.565 4.49609" stroke="#8767E3" stroke-width="0.8" stroke-linecap="round" stroke-linejoin="round"/>
<path d="M96.3506 14.209C96.381 18.009 96.3506 27.737 96.0922 32.2818C94.8922 33.0722 85.4226 37.8018 81.3634 39.6842C77.689 41.389 74.5826 41.0362 73.1354 38.7194C71.1354 35.5194 74.5506 30.1378 75.9354 27.053C76.9538 24.7882 75.4034 24.1802 74.2482 25.3202C74.2482 24.3018 72.9106 23.937 72.1962 25.0618C72.1202 24.089 70.5394 23.8618 69.7794 25.1834C69.597 24.1498 67.8338 24.3778 67.2106 25.5482C67.0282 24.6362 65.5186 25.1482 65.2498 26.521C62.8362 38.8098 64.2898 40.841 70.0074 38.0122C69.521 39.2036 68.7034 40.2308 67.6514 40.9722" stroke="#8767E3" stroke-width="0.8" stroke-linecap="round" stroke-linejoin="round"/>
<path d="M108.13 14.0869C108.13 35.5037 108.363 36.5549 107.233 38.6653C105.735 41.4653 102.78 43.2101 80.2686 55.7197C80.4966 58.8661 80.8158 62.6205 80.8158 65.2197" stroke="#8767E3" stroke-width="0.8" stroke-linecap="round" stroke-linejoin="round"/>
<path d="M29.7285 51.2512C34.7445 54.2608 41.5541 57.3616 42.4053 57.7568C46.2053 56.2064 58.7741 50.5344 63.9253 47.1472C66.9341 45.1696 67.8013 41.0824 67.8165 38.8936" stroke="#8767E3" stroke-width="0.8" stroke-linecap="round" stroke-linejoin="round"/>
<path d="M63.9287 47.1597C65.9199 49.2573 73.6263 47.7997 75.6175 40.5781" stroke="#8767E3" stroke-width="0.8" stroke-linecap="round" stroke-linejoin="round"/>
<path d="M64.5518 30.4882C66.5166 29.9137 68.5542 29.627 70.6014 29.637C70.1758 31.2634 70.3614 33.4522 71.0574 31.9474C71.7534 30.4426 73.4966 31.6026 72.2574 33.513C72.0558 33.9118 71.9726 34.3602 72.019 34.8048C72.0646 35.2494 72.2374 35.6715 72.5158 36.021" stroke="#8767E3" stroke-width="0.8" stroke-linecap="round" stroke-linejoin="round"/>
<path d="M51.7539 101.031C58.6243 98.5689 69.8755 94.4089 77.3355 90.0417C81.5627 87.5673 85.6347 80.1617 79.5699 69.6281C80.7099 65.6281 83.0507 57.3769 84.2099 53.5312" stroke="#8767E3" stroke-width="0.8" stroke-linecap="round" stroke-linejoin="round"/>
<path d="M65.6311 75.8145C40.1559 87.1537 35.6927 89.7385 34.8967 94.4953C34.2175 98.5545 35.9455 102.627 51.0239 127.375C55.2191 128.515 63.0927 125.977 64.8255 121.375C60.2959 112.175 55.5839 102.895 54.0791 100.202" stroke="#8767E3" stroke-width="0.8" stroke-linecap="round" stroke-linejoin="round"/>
<path d="M62.1504 97.1247C64.7648 104.755 68.0328 116.626 71.6352 118.298C75.2376 119.97 76.636 120.305 99.2352 120.365C101.5 118.633 101.576 110.227 99.2352 106.488C93.2352 106.153 83.1688 105.956 81.0256 105.758C79.9768 100.894 78.3056 93.2783 77.6656 89.8135" stroke="#8767E3" stroke-width="0.8" stroke-linecap="round" stroke-linejoin="round"/>
<path d="M64.1115 122.722C65.1875 123.614 66.1659 124.618 67.0299 125.716C65.2059 130.808 57.9899 140.445 52.0579 144.108C51.7083 140.171 53.1675 132.206 55.0219 127.525" stroke="#8767E3" stroke-width="0.8" stroke-linecap="round" stroke-linejoin="round"/>
<path d="M94.5267 106.291C96.5331 108.541 97.5211 116.217 94.2227 120.351" stroke="#8767E3" stroke-width="0.8" stroke-linecap="round" stroke-linejoin="round"/>
<path d="M48.2881 122.874C52.9089 123.892 60.2081 122.038 62.5457 116.764" stroke="#8767E3" stroke-width="0.8" stroke-linecap="round" stroke-linejoin="round"/>
<path d="M51.9971 141.888C54.9459 140.034 62.5459 132.981 66.0723 124.608" stroke="#8767E3" stroke-width="0.8" stroke-linecap="round" stroke-linejoin="round"/>
<path d="M99.8926 107.81C100.806 107.704 101.73 107.704 102.644 107.81C105.213 109.89 112.387 118.496 112.478 126.202C108.344 125.642 102.188 121.566 100.212 118.937" stroke="#8767E3" stroke-width="0.8" stroke-linecap="round" stroke-linejoin="round"/>
<path d="M101.336 107.75C104.136 110.334 110.912 119.59 111.216 125.944" stroke="#8767E3" stroke-width="0.8" stroke-linecap="round" stroke-linejoin="round"/>
<path d="M55.751 57.7568C56.1462 62.484 57.831 75.2976 58.151 79.1584" stroke="#8767E3" stroke-width="0.8" stroke-linecap="round" stroke-linejoin="round"/>
<path d="M79.5697 69.6279C70.9665 69.6887 63.8833 71.8167 57.7881 75.5559" stroke="#8767E3" stroke-width="0.8" stroke-linecap="round" stroke-linejoin="round"/>
<path d="M57.4689 121.673C54.1553 115.244 47.2849 100.576 45.8105 97.5053C52.6809 94.0397 70.1457 86.7741 73.1553 84.9045C76.1649 83.0349 77.3505 80.6333 74.1585 69.9629" stroke="#8767E3" stroke-width="0.8" stroke-linecap="round" stroke-linejoin="round"/>
<path d="M24.4541 61.8799C38.8485 70.5855 41.1597 71.5295 44.7613 70.5399C48.839 69.3277 52.8137 67.7928 56.6477 65.9495" stroke="#8767E3" stroke-width="0.8" stroke-linecap="round" stroke-linejoin="round"/>
<path d="M46.084 70.1599C50.144 67.4695 54.5048 62.7879 56.0704 60.9199" stroke="#8767E3" stroke-width="0.8" stroke-linecap="round" stroke-linejoin="round"/>
<path d="M63.5947 101.487C65.3883 99.359 70.5715 94.343 72.4411 92.6406" stroke="#8767E3" stroke-width="0.8" stroke-linecap="round" stroke-linejoin="round"/>
<path d="M5.77344 34.7139L6.30064 37.6939" stroke="#8767E3" stroke-width="0.8" stroke-linecap="round" stroke-linejoin="round"/>
<path d="M12.5972 39.4873L9.61719 40.0145" stroke="#8767E3" stroke-width="0.8" stroke-linecap="round" stroke-linejoin="round"/>
<path d="M7.82408 46.3111L7.29688 43.3311" stroke="#8767E3" stroke-width="0.8" stroke-linecap="round" stroke-linejoin="round"/>
<path d="M1 41.5379L3.9816 41.0107" stroke="#8767E3" stroke-width="0.8" stroke-linecap="round" stroke-linejoin="round"/>
<path d="M9.61797 40.0142C9.24797 40.0797 8.86869 40.0716 8.50181 39.9903C8.13501 39.9091 7.78773 39.7564 7.47997 39.5408C7.17221 39.3253 6.90997 39.0511 6.70829 38.7342C6.50653 38.4171 6.36925 38.0635 6.30437 37.6934C6.37045 38.0636 6.36278 38.4431 6.2819 38.8104C6.20094 39.1776 6.04838 39.5252 5.83286 39.8334C5.61734 40.1415 5.34309 40.4041 5.02589 40.606C4.70869 40.8079 4.35478 40.9453 3.98438 41.0102C4.35445 40.9442 4.7339 40.952 5.10094 41.033C5.46806 41.1139 5.81549 41.2666 6.12349 41.4821C6.43149 41.6976 6.6939 41.9718 6.89574 42.289C7.0975 42.6061 7.23477 42.9599 7.29957 43.3302C7.23373 42.9602 7.24149 42.5809 7.32237 42.2138C7.40325 41.8469 7.55574 41.4994 7.7711 41.1914C7.98646 40.8834 8.26037 40.6209 8.57733 40.4189C8.89421 40.2169 9.24781 40.0794 9.61797 40.0142Z" stroke="#8767E3" stroke-width="0.8" stroke-linecap="round" stroke-linejoin="round"/>
<path d="M118.603 79.8271L119.358 84.1008" stroke="#8767E3" stroke-width="0.8" stroke-linecap="round" stroke-linejoin="round"/>
<path d="M128.387 86.6729L124.113 87.4281" stroke="#8767E3" stroke-width="0.8" stroke-linecap="round" stroke-linejoin="round"/>
<path d="M121.542 96.4572L120.786 92.1836" stroke="#8767E3" stroke-width="0.8" stroke-linecap="round" stroke-linejoin="round"/>
<path d="M111.757 89.6116L116.033 88.8564" stroke="#8767E3" stroke-width="0.8" stroke-linecap="round" stroke-linejoin="round"/>
<path d="M124.114 87.4278C123.583 87.5222 123.039 87.511 122.512 87.395C121.986 87.279 121.488 87.0598 121.046 86.751C120.604 86.4422 120.228 86.0486 119.938 85.5942C119.648 85.139 119.452 84.6318 119.358 84.1006C119.452 84.631 119.442 85.175 119.326 85.7022C119.21 86.2286 118.992 86.727 118.683 87.1686C118.374 87.6102 117.98 87.987 117.526 88.2766C117.072 88.5662 116.564 88.763 116.033 88.8566C116.564 88.7622 117.108 88.7734 117.635 88.8894C118.161 89.0054 118.659 89.2246 119.1 89.5334C119.542 89.8422 119.919 90.2358 120.208 90.6902C120.497 91.1454 120.694 91.6526 120.787 92.1838C120.692 91.6526 120.704 91.1086 120.82 90.5822C120.936 90.0558 121.155 89.5574 121.464 89.1158C121.772 88.6734 122.166 88.2974 122.62 88.0078C123.076 87.7182 123.583 87.5206 124.114 87.4278Z" stroke="#8767E3" stroke-width="0.8" stroke-linecap="round" stroke-linejoin="round"/>
</svg>
