<svg width="129" height="154" viewBox="0 0 129 154" fill="none" xmlns="http://www.w3.org/2000/svg">
    <path d="M99.2544 106.503C93.3184 106.183 83.044 105.962 81.0144 105.774C79.9704 100.988 78.2888 93.4096 77.6224 89.8536C77.6336 89.8464 77.6448 89.8392 77.6552 89.8312C81.7744 87.1712 85.468 79.8904 79.5552 69.6304C71.676 69.6968 64.448 71.4648 57.7888 75.5584C57.956 77.0632 58.0928 78.34 58.1688 79.176C39.2448 87.736 35.5968 90.2568 34.8976 94.4976C34.0856 99.4504 38.4016 106.522 51.0248 127.36C55.8248 128.48 63.136 125.736 64.8264 121.371C62.8952 117.47 56.1944 103.968 54.08 100.198C59.7784 98.1176 66.4 95.5376 71.8624 92.9088C69.6288 95.0576 65.1896 99.5792 63.58 101.49C65.9208 108.634 68.6568 116.93 71.6208 118.301C75.0824 119.901 76.6776 120.368 99.2392 120.368C101.829 118.046 101.249 109.867 99.2544 106.503Z" fill="#9CECDE"/>
    <path d="M27.5845 49.0471C27.4325 47.6071 27.2349 47.5119 25.1845 46.5087C23.6949 45.7791 23.1677 45.5663 22.5853 46.5543L22.5741 46.5751C21.5493 45.9855 21.8997 46.1863 20.9741 45.6575C20.8228 45.5648 20.6544 45.5039 20.4788 45.4784C20.3033 45.4529 20.1244 45.4635 19.9531 45.5092C19.7817 45.5551 19.6215 45.6352 19.4821 45.7449C19.3427 45.8546 19.2271 45.9915 19.1423 46.1472C19.0574 46.303 19.0052 46.4744 18.9886 46.651C18.9721 46.8276 18.9916 47.0057 19.0461 47.1745C19.1006 47.3433 19.1888 47.4992 19.3054 47.6329C19.422 47.7665 19.5647 47.8751 19.7245 47.9519C19.4216 47.7959 19.0711 47.7595 18.7425 47.8495C18.4139 47.9397 18.1311 48.1499 17.95 48.4385C17.769 48.7271 17.7029 49.0733 17.7648 49.4083C17.8268 49.7434 18.0123 50.043 18.2845 50.2479C19.3468 50.8686 20.4418 51.4318 21.5645 51.9351C21.8357 52.084 22.1506 52.133 22.4542 52.0733C22.7577 52.0136 23.0307 51.8491 23.2253 51.6087C23.1594 52.247 23.2306 52.892 23.4341 53.5007C22.3549 55.5071 21.7013 56.9815 21.6741 58.3647C22.7837 59.0847 24.6341 60.0535 26.0365 60.9487C27.8443 58.6703 29.1824 56.0562 29.9733 53.2575C28.1117 52.5799 27.9773 50.8767 27.5845 49.0471Z" fill="#9CECDE"/>
    <path d="M17.2959 52.8017C17.016 52.6117 16.8214 52.32 16.7532 51.9886C16.6851 51.6574 16.7488 51.3125 16.931 51.0274C17.1131 50.7424 17.3991 50.5396 17.7284 50.4622C18.0577 50.3848 18.4042 50.4389 18.6943 50.6129C19.8751 51.2177 20.6879 51.6265 21.7343 52.2241C23.3423 53.1425 22.2815 55.2025 20.5639 54.3841C19.447 53.9155 18.356 53.3874 17.2959 52.8017Z" fill="#9CECDE"/>
    <path d="M16.5964 55.3553C16.3231 55.1768 16.13 54.8989 16.0582 54.5805C15.9863 54.2621 16.0412 53.9282 16.2112 53.6496C16.3813 53.3709 16.6532 53.1695 16.9692 53.0878C17.2853 53.0061 17.6206 53.0508 17.9044 53.2121C18.7044 53.5825 19.9236 54.1721 20.8836 54.6865C22.4596 55.5321 21.4908 57.5457 19.7892 56.7993C18.6959 56.385 17.6296 55.9027 16.5964 55.3553Z" fill="#9CECDE"/>
    <path d="M106.567 4.82532C106.371 2.23572 104.319 3.05572 103.911 4.27412C103.879 1.79412 101.611 2.33172 101.16 3.69252C101.113 1.92292 98.7809 2.02932 98.4561 3.50692C98.1745 2.20772 95.8161 2.30692 95.8337 4.00932C95.8489 4.64372 95.8337 5.12931 95.8489 5.78931C94.7537 5.91731 94.6625 6.45731 94.5569 8.09811C94.4049 10.3629 94.3897 10.5909 95.5601 11.3509C97.0617 12.3301 98.3057 13.5397 97.9921 15.3029C100.839 15.8092 103.759 15.742 106.58 15.1053C106.58 10.5013 106.624 5.58851 106.567 4.82532Z" fill="#9CECDE"/>
    <path d="M72.5177 36.021C72.2353 35.6737 72.0601 35.2512 72.0137 34.8057C71.9681 34.3601 72.0537 33.9108 72.2593 33.513C73.4905 31.5826 71.7577 30.4578 71.0593 31.9474C70.3601 33.4522 70.1793 31.2634 70.6033 29.637C68.5561 29.626 66.5177 29.9128 64.5529 30.4882C63.4737 37.8298 64.4921 39.9122 67.8209 38.909C68.5649 38.6706 69.2873 38.3707 69.9809 38.0122C69.4905 39.2013 68.6737 40.2274 67.6249 40.9722C67.1905 43.417 65.8761 45.6181 63.9297 47.1602C66.3465 49.6682 72.8521 47.8746 75.6185 40.5786C74.6449 40.3099 73.7993 39.7041 73.2313 38.8693C72.6633 38.0345 72.4105 37.025 72.5177 36.021Z" fill="#9CECDE"/>
    <path d="M106.549 12.9926C106.533 13.7526 106.533 14.4822 106.549 15.1206C107.567 14.8166 108.038 14.4518 108.114 14.087C108.253 13.431 106.977 12.907 106.549 12.9926Z" fill="#8767E3"/>
    <path d="M101.335 107.749C100.853 107.736 100.372 107.762 99.8945 107.825C101.232 111.139 101.308 116.277 100.215 118.952C101.975 121.308 107.175 124.864 111.219 125.944C110.926 119.59 104.131 110.333 101.335 107.749Z" fill="#8767E3"/>
    <path d="M97.612 13.3273C97.352 13.3201 96.332 13.5225 96.332 14.2241C96.332 14.6041 96.8032 15.0297 97.9584 15.3185C98.0832 14.6347 97.96 13.9289 97.612 13.3273Z" fill="#8767E3"/>
    <path d="M80.2676 55.7201C80.4804 58.8665 80.8148 62.6209 80.8148 65.22C81.97 61.1617 83.3836 56.2521 84.2044 53.5312L80.2676 55.7201Z" fill="#8767E3"/>
    <path d="M74.2332 25.3202C74.2332 24.2866 72.8956 23.937 72.1812 25.0618C72.1204 24.089 70.5396 23.8618 69.7644 25.1834C69.5972 24.1346 67.8188 24.3626 67.1956 25.5482C67.0132 24.621 65.4932 25.1378 65.2348 26.521C64.9612 27.9802 64.718 29.3026 64.5508 30.4882C66.5148 29.9107 68.5532 29.6239 70.6004 29.637C70.1748 31.2482 70.3604 33.4218 71.0564 31.9474C71.7404 30.473 73.4884 31.5826 72.2564 33.513C72.058 33.9126 71.9764 34.3604 72.022 34.8044C72.0684 35.2483 72.2388 35.6702 72.5148 36.021C72.6972 32.8442 75.1596 28.725 75.9196 27.053C76.954 24.7882 75.3884 24.1802 74.2332 25.3202Z" fill="#8767E3"/>
    <path d="M62.1328 97.1246C62.5888 98.4774 63.0752 99.9518 63.5728 101.487C65.3664 99.359 70.5496 94.3278 72.4192 92.6406C69.1552 94.2366 65.5816 95.7718 62.1328 97.1246Z" fill="#8767E3"/>
    <path d="M67.8226 38.9089C67.8106 39.602 67.7442 40.2932 67.625 40.9761C68.677 40.2348 69.4946 39.2076 69.981 38.0161C69.2858 38.3693 68.5642 38.6679 67.8226 38.9089Z" fill="#8767E3"/>
    <path d="M64.1113 122.722C64.8353 123.283 65.4977 123.92 66.0873 124.622C62.5609 132.982 55.0065 140.019 52.0273 141.889C52.3249 136.98 53.3388 132.141 55.0369 127.525C58.4569 127.069 62.3041 125.336 64.1113 122.722Z" fill="#8767E3"/>
    <path d="M56.0684 60.9199C54.5028 62.8047 50.1556 67.4711 46.082 70.1615C49.6934 68.9948 53.2226 67.5877 56.646 65.9495C56.4332 64.1559 56.2356 62.4231 56.0684 60.9199Z" fill="#8767E3"/>
    <path d="M29.7282 51.2512C29.3938 51.0536 28.8162 51.2968 28.3906 51.92C28.7407 52.5486 29.3065 53.0291 29.9834 53.2728C30.2298 52.0872 30.0634 51.4488 29.7282 51.2512Z" fill="#8767E3"/>
    <path d="M26.0329 60.9641C25.3337 61.7545 24.8009 61.9841 24.4521 61.8761C23.9649 61.7257 23.9049 60.8121 24.1937 59.8545C24.8169 60.2193 25.4401 60.5841 26.0329 60.9641Z" fill="#8767E3"/>
    <path d="M27.9654 19.2554C27.3422 20.3954 26.7798 21.505 26.263 22.5538C22.1742 30.9898 21.3686 36.5682 21.383 40.733C21.3982 42.785 21.5958 44.4874 21.703 46.0378V46.053C21.9918 46.2202 22.263 46.3874 22.5998 46.585C23.2078 45.625 23.7094 45.8098 25.199 46.5394C27.251 47.5426 27.4486 47.6338 27.599 49.0778C27.6142 49.2602 27.6294 49.4274 27.6598 49.5946C29.0886 48.789 30.715 47.9834 32.5694 46.7946C36.0806 44.5298 40.3062 40.821 45.1246 32.7802C45.7326 31.7618 46.3558 30.7002 46.979 29.5426L27.9654 19.2554ZM34.1062 35.8994L33.1334 40.5202L31.0238 36.2946L26.3422 36.8266L29.7022 33.4978L27.7566 29.1962L31.9518 31.3562L35.4326 28.1946L34.6726 32.861L38.7766 35.1866L34.1062 35.8994Z" fill="#8767E3"/>
    <path d="M14.5283 117.478C17.0551 117.478 19.1035 115.43 19.1035 112.902C19.1035 110.375 17.0551 108.327 14.5283 108.327C12.0015 108.327 9.95312 110.375 9.95312 112.902C9.95312 115.43 12.0015 117.478 14.5283 117.478Z" fill="#8767E3"/>
    <path d="M21.701 58.4103C21.7314 57.0271 22.385 55.5527 23.461 53.5463C23.2372 52.8045 23.1805 52.0224 23.2949 51.2561C23.4093 50.4899 23.6919 49.7583 24.1226 49.1143C23.8499 49.5359 23.5322 49.9267 23.1754 50.2799C23.6314 51.2071 22.8866 52.6207 21.5642 51.9519L21.7466 52.2407C23.3578 53.1527 22.2938 55.2199 20.5762 54.4007L20.8962 54.6895C22.477 55.5255 21.489 57.5471 19.7866 56.8023C19.0418 56.4679 18.4338 56.2247 17.9322 56.0119C16.625 57.0607 14.9986 57.3039 12.293 56.9239L24.0274 63.2775C22.3546 61.3743 21.6554 59.9455 21.701 58.4103Z" fill="#8767E3"/>
    <path d="M11.7463 56.9663L8.88867 60.7055L22.7055 68.1991L24.2863 63.7607L11.7463 56.9663Z" fill="#8767E3"/>
    <path d="M26.0347 60.9639C24.5947 60.0215 22.9339 59.1855 21.6875 58.3799" stroke="#8767E3" stroke-width="0.8" stroke-linecap="round" stroke-linejoin="round"/>
    <path d="M64.4916 30.9744L61.634 1L39.5332 56.4192" stroke="#8767E3" stroke-width="0.8" stroke-linecap="round" stroke-linejoin="round"/>
    <path d="M65.8443 45.2928L65.2363 38.772" stroke="#8767E3" stroke-width="0.8" stroke-linecap="round" stroke-linejoin="round"/>
    <path d="M97.8106 106.427L118.589 54.3218L82.0938 60.7666" stroke="#8767E3" stroke-width="0.8" stroke-linecap="round" stroke-linejoin="round"/>
    <path d="M76.0742 119.682L79.251 153L92.2774 120.335" stroke="#8767E3" stroke-width="0.8" stroke-linecap="round" stroke-linejoin="round"/>
    <path d="M34.9124 68.0015L22.2812 99.6783L34.9276 97.4439" stroke="#8767E3" stroke-width="0.8" stroke-linecap="round" stroke-linejoin="round"/>
    <path d="M26.2776 22.5842L18.3736 18.313C12.0536 29.9866 17.8264 38.833 21.3984 40.7634" stroke="#8767E3" stroke-width="0.8" stroke-linecap="round" stroke-linejoin="round"/>
    <path d="M31.0351 36.3097L26.3535 36.8265L29.6975 33.5129L27.7519 29.2113L31.9471 31.3697L35.4279 28.1929L34.6679 32.8441L38.7719 35.1849L34.1055 35.8993L33.1631 40.5201L31.0351 36.3097Z" stroke="#8767E3" stroke-width="0.8" stroke-linecap="round" stroke-linejoin="round"/>
    <path d="M44.9283 32.6616L53.0299 37.0696C46.7035 48.7432 36.1435 48.7432 32.5859 46.8128" stroke="#8767E3" stroke-width="0.8" stroke-linecap="round" stroke-linejoin="round"/>
    <path d="M20.8109 130.309C25.7633 130.309 29.7781 126.295 29.7781 121.342C29.7781 116.389 25.7633 112.375 20.8109 112.375C15.8585 112.375 11.8438 116.389 11.8438 121.342C11.8438 126.295 15.8585 130.309 20.8109 130.309Z" stroke="#8767E3" stroke-width="0.8" stroke-linecap="round" stroke-linejoin="round"/>
    <path d="M118.618 32.297C120.146 32.297 121.384 31.0584 121.384 29.5306C121.384 28.0027 120.146 26.7642 118.618 26.7642C117.09 26.7642 115.852 28.0027 115.852 29.5306C115.852 31.0584 117.09 32.297 118.618 32.297Z" stroke="#8767E3" stroke-width="0.8" stroke-linecap="round" stroke-linejoin="round"/>
    <path d="M11.1851 78.3682C11.9658 78.3682 12.5987 77.7354 12.5987 76.9546C12.5987 76.1739 11.9658 75.541 11.1851 75.541C10.4044 75.541 9.77148 76.1739 9.77148 76.9546C9.77148 77.7354 10.4044 78.3682 11.1851 78.3682Z" stroke="#8767E3" stroke-width="0.8" stroke-linecap="round" stroke-linejoin="round"/>
    <path d="M83.4761 8.93457L82.0625 14.589L86.3489 13.829L84.9353 19.4834" stroke="#8767E3" stroke-width="0.8" stroke-linecap="round" stroke-linejoin="round"/>
    <path d="M20.5637 54.3824C22.2837 55.1984 23.3437 53.1384 21.7341 52.2224C20.5341 51.54 19.6669 51.112 18.6941 50.6112C18.4043 50.4438 18.0611 50.3947 17.736 50.4741C17.4109 50.5534 17.1288 50.755 16.9486 51.0371C16.7685 51.3191 16.704 51.6598 16.7686 51.9882C16.8333 52.3166 17.0221 52.6073 17.2957 52.8C18.0701 53.2888 18.9853 53.6336 20.5637 54.3824Z" stroke="#8767E3" stroke-width="0.8" stroke-linecap="round" stroke-linejoin="round"/>
    <path d="M22.6157 46.6C22.0077 46.2352 21.5685 45.9888 20.9741 45.64C20.6936 45.4568 20.3529 45.39 20.024 45.4537C19.6952 45.5175 19.4041 45.7068 19.2124 45.9815C19.0207 46.2561 18.9434 46.5947 18.9971 46.9253C19.0507 47.256 19.231 47.5528 19.4997 47.7528C20.1498 48.1866 20.8305 48.5727 21.5365 48.908" stroke="#8767E3" stroke-width="0.8" stroke-linecap="round" stroke-linejoin="round"/>
    <path d="M19.803 56.7994C21.4902 57.5442 22.4774 55.525 20.8974 54.6866C19.7262 54.065 18.8582 53.673 17.9182 53.2274C17.6346 53.0681 17.3002 53.025 16.9854 53.1072C16.6706 53.1894 16.4 53.3906 16.2306 53.6684C16.0612 53.9462 16.0062 54.2788 16.0771 54.5963C16.1481 54.9138 16.3394 55.1914 16.6109 55.3706C17.3709 55.8106 18.2526 56.1154 19.803 56.7994Z" stroke="#8767E3" stroke-width="0.8" stroke-linecap="round" stroke-linejoin="round"/>
    <path d="M21.5032 48.9712C20.88 48.6368 20.3297 48.3848 19.7249 48.0592C19.4346 47.879 19.0856 47.8188 18.7518 47.8913C18.418 47.9637 18.1253 48.1631 17.9358 48.4474C17.7464 48.7316 17.6749 49.0784 17.7364 49.4144C17.7979 49.7505 17.9877 50.0494 18.2656 50.248C19.0552 50.7664 19.9561 51.1384 21.5457 51.9352C22.8705 52.5984 23.6129 51.1904 23.1569 50.2632" stroke="#8767E3" stroke-width="0.8" stroke-linecap="round" stroke-linejoin="round"/>
    <path d="M28.3768 51.9202C28.8176 51.297 29.392 51.0594 29.7296 51.2514C30.332 51.5954 30.3824 53.349 28.5136 57.0426C26.5216 60.9794 25.1232 62.0922 24.44 61.8762C23.968 61.7266 23.8928 60.797 24.1816 59.8546" stroke="#8767E3" stroke-width="0.8" stroke-linecap="round" stroke-linejoin="round"/>
    <path d="M29.9832 53.2726C28.9496 52.847 27.9032 52.0878 27.612 49.0774C27.4704 47.6374 27.2632 47.5406 25.212 46.539C22.812 45.367 22.9472 45.579 21.1384 49.8374C20.6936 50.8846 22.324 51.9654 24.2088 48.9254C22.7344 51.251 23.0088 53.5654 24.3608 55.0358" stroke="#8767E3" stroke-width="0.8" stroke-linecap="round" stroke-linejoin="round"/>
    <path d="M103.584 7.18645C103.434 9.08645 101.129 9.14725 101.137 7.30805C101.142 5.94005 101.201 4.96727 101.258 3.87287C101.354 2.04887 103.787 2.06407 103.842 3.56887C103.878 4.48087 103.724 5.43845 103.584 7.18645Z" stroke="#8767E3" stroke-width="0.8" stroke-linecap="round" stroke-linejoin="round"/>
    <path d="M95.8494 5.78985C95.8342 5.12105 95.8446 4.63306 95.8342 3.99466C95.8062 2.26186 98.275 2.18346 98.3878 3.62986C98.4398 4.3687 98.4398 5.11025 98.3878 5.84905" stroke="#8767E3" stroke-width="0.8" stroke-linecap="round" stroke-linejoin="round"/>
    <path d="M106.199 7.6271C106.009 9.4823 103.775 9.4815 103.843 7.6879C103.895 6.3655 103.978 5.4231 104.056 4.3743C104.188 2.6143 106.549 2.6871 106.549 4.1343C106.549 5.0127 106.373 5.9407 106.199 7.6271Z" stroke="#8767E3" stroke-width="0.8" stroke-linecap="round" stroke-linejoin="round"/>
    <path d="M98.4473 5.83355C98.4625 5.11915 98.5225 4.51115 98.5385 3.82715C98.5817 1.97275 101.058 1.94235 101.153 3.46235C101.211 4.38955 101.077 5.36235 100.986 7.14235C100.991 7.40779 100.912 7.66819 100.758 7.88467C100.604 8.10123 100.385 8.26243 100.132 8.34435C99.8801 8.42627 99.6073 8.42459 99.3561 8.33947C99.1041 8.25435 98.8873 8.09043 98.7361 7.87195" stroke="#8767E3" stroke-width="0.8" stroke-linecap="round" stroke-linejoin="round"/>
    <path d="M97.596 13.3272C96.836 13.4488 96.3496 13.8136 96.3496 14.1936C96.3496 14.8776 97.824 15.696 101.943 15.6224C106.321 15.5424 107.979 14.7712 108.13 14.072C108.238 13.5704 107.598 13.112 106.64 12.9624" stroke="#8767E3" stroke-width="0.8" stroke-linecap="round" stroke-linejoin="round"/>
    <path d="M97.9768 15.3033C98.1136 14.1937 97.9712 12.9401 95.5296 11.3665C94.3568 10.6105 94.3736 10.3785 94.5264 8.11366C94.7072 5.43846 94.816 5.66406 99.3904 5.89446C100.515 5.95126 100.637 7.88566 97.08 8.25046C99.816 7.94646 101.686 9.19286 102.28 11.0321" stroke="#8767E3" stroke-width="0.8" stroke-linecap="round" stroke-linejoin="round"/>
    <path d="M106.565 15.1057C106.474 11.9745 106.805 6.92809 106.565 4.49609" stroke="#8767E3" stroke-width="0.8" stroke-linecap="round" stroke-linejoin="round"/>
    <path d="M96.3497 14.209C96.3801 18.009 96.3497 27.737 96.0913 32.2818C94.8913 33.0722 85.4217 37.8018 81.3625 39.6842C77.6881 41.389 74.5817 41.0362 73.1345 38.7194C71.1345 35.5194 74.5497 30.1378 75.9345 27.053C76.9529 24.7882 75.4025 24.1802 74.2473 25.3202C74.2473 24.3018 72.9097 23.937 72.1953 25.0618C72.1193 24.089 70.5385 23.8618 69.7785 25.1834C69.5961 24.1498 67.8329 24.3778 67.2097 25.5482C67.0273 24.6362 65.5177 25.1482 65.2489 26.521C62.8353 38.8098 64.2889 40.841 70.0065 38.0122C69.5201 39.2036 68.7025 40.2308 67.6505 40.9722" stroke="#8767E3" stroke-width="0.8" stroke-linecap="round" stroke-linejoin="round"/>
    <path d="M108.131 14.0869C108.131 35.5037 108.364 36.5549 107.234 38.6653C105.736 41.4653 102.781 43.2101 80.2695 55.7197C80.4975 58.8661 80.8167 62.6205 80.8167 65.2197" stroke="#8767E3" stroke-width="0.8" stroke-linecap="round" stroke-linejoin="round"/>
    <path d="M29.7285 51.2512C34.7445 54.2608 41.5541 57.3616 42.4053 57.7568C46.2053 56.2064 58.7741 50.5344 63.9253 47.1472C66.9341 45.1696 67.8013 41.0824 67.8165 38.8936" stroke="#8767E3" stroke-width="0.8" stroke-linecap="round" stroke-linejoin="round"/>
    <path d="M63.9297 47.1597C65.9209 49.2573 73.6273 47.7997 75.6185 40.5781" stroke="#8767E3" stroke-width="0.8" stroke-linecap="round" stroke-linejoin="round"/>
    <path d="M64.5527 30.4882C66.5175 29.9137 68.5551 29.627 70.6023 29.637C70.1767 31.2634 70.3623 33.4522 71.0583 31.9474C71.7543 30.4426 73.4975 31.6026 72.2583 33.513C72.0567 33.9118 71.9735 34.3602 72.0199 34.8048C72.0655 35.2494 72.2383 35.6715 72.5167 36.021" stroke="#8767E3" stroke-width="0.8" stroke-linecap="round" stroke-linejoin="round"/>
    <path d="M51.7539 101.031C58.6243 98.5689 69.8755 94.4089 77.3355 90.0417C81.5627 87.5673 85.6347 80.1617 79.5699 69.6281C80.7099 65.6281 83.0507 57.3769 84.2099 53.5312" stroke="#8767E3" stroke-width="0.8" stroke-linecap="round" stroke-linejoin="round"/>
    <path d="M65.632 75.8145C40.1568 87.1537 35.6936 89.7385 34.8976 94.4953C34.2184 98.5545 35.9464 102.627 51.0248 127.375C55.22 128.515 63.0936 125.977 64.8264 121.375C60.2968 112.175 55.5848 102.895 54.08 100.202" stroke="#8767E3" stroke-width="0.8" stroke-linecap="round" stroke-linejoin="round"/>
    <path d="M62.1504 97.1247C64.7648 104.755 68.0328 116.626 71.6352 118.298C75.2376 119.97 76.636 120.305 99.2352 120.365C101.5 118.633 101.576 110.227 99.2352 106.488C93.2352 106.153 83.1688 105.956 81.0256 105.758C79.9768 100.894 78.3056 93.2783 77.6656 89.8135" stroke="#8767E3" stroke-width="0.8" stroke-linecap="round" stroke-linejoin="round"/>
    <path d="M64.1115 122.722C65.1875 123.614 66.1659 124.618 67.0299 125.716C65.2059 130.808 57.9899 140.445 52.0579 144.108C51.7083 140.171 53.1675 132.206 55.0219 127.525" stroke="#8767E3" stroke-width="0.8" stroke-linecap="round" stroke-linejoin="round"/>
    <path d="M94.5267 106.291C96.5331 108.54 97.5211 116.216 94.2227 120.351" stroke="#8767E3" stroke-width="0.8" stroke-linecap="round" stroke-linejoin="round"/>
    <path d="M48.2871 122.874C52.9079 123.892 60.2071 122.038 62.5447 116.763" stroke="#8767E3" stroke-width="0.8" stroke-linecap="round" stroke-linejoin="round"/>
    <path d="M51.9961 141.889C54.9449 140.034 62.5449 132.982 66.0713 124.609" stroke="#8767E3" stroke-width="0.8" stroke-linecap="round" stroke-linejoin="round"/>
    <path d="M99.8926 107.81C100.806 107.704 101.73 107.704 102.644 107.81C105.213 109.89 112.387 118.496 112.478 126.202C108.344 125.642 102.188 121.566 100.212 118.937" stroke="#8767E3" stroke-width="0.8" stroke-linecap="round" stroke-linejoin="round"/>
    <path d="M101.336 107.75C104.136 110.334 110.912 119.59 111.216 125.944" stroke="#8767E3" stroke-width="0.8" stroke-linecap="round" stroke-linejoin="round"/>
    <path d="M55.752 57.7568C56.1472 62.484 57.832 75.2976 58.152 79.1584" stroke="#8767E3" stroke-width="0.8" stroke-linecap="round" stroke-linejoin="round"/>
    <path d="M79.5687 69.6279C70.9655 69.6887 63.8823 71.8167 57.7871 75.5559" stroke="#8767E3" stroke-width="0.8" stroke-linecap="round" stroke-linejoin="round"/>
    <path d="M57.4689 121.673C54.1553 115.243 47.2849 100.575 45.8105 97.5048C52.6809 94.0392 70.1457 86.7736 73.1553 84.904C76.1649 83.0344 77.3505 80.6328 74.1585 69.9624" stroke="#8767E3" stroke-width="0.8" stroke-linecap="round" stroke-linejoin="round"/>
    <path d="M24.4551 61.8799C38.8495 70.5855 41.1607 71.5295 44.7623 70.5399C48.84 69.3277 52.8147 67.7928 56.6487 65.9495" stroke="#8767E3" stroke-width="0.8" stroke-linecap="round" stroke-linejoin="round"/>
    <path d="M46.084 70.1599C50.144 67.4695 54.5048 62.7879 56.0704 60.9199" stroke="#8767E3" stroke-width="0.8" stroke-linecap="round" stroke-linejoin="round"/>
    <path d="M63.5938 101.487C65.3874 99.359 70.5705 94.343 72.4401 92.6406" stroke="#8767E3" stroke-width="0.8" stroke-linecap="round" stroke-linejoin="round"/>
    <path d="M5.77344 34.7139L6.30064 37.6939" stroke="#8767E3" stroke-width="0.8" stroke-linecap="round" stroke-linejoin="round"/>
    <path d="M12.5972 39.4873L9.61719 40.0145" stroke="#8767E3" stroke-width="0.8" stroke-linecap="round" stroke-linejoin="round"/>
    <path d="M7.82408 46.3111L7.29688 43.3311" stroke="#8767E3" stroke-width="0.8" stroke-linecap="round" stroke-linejoin="round"/>
    <path d="M1 41.5375L3.9816 41.0103" stroke="#8767E3" stroke-width="0.8" stroke-linecap="round" stroke-linejoin="round"/>
    <path d="M9.61797 40.0142C9.24797 40.0797 8.86869 40.0716 8.50181 39.9903C8.13501 39.9091 7.78773 39.7564 7.47997 39.5408C7.17221 39.3253 6.90997 39.0511 6.70829 38.7342C6.50653 38.4171 6.36925 38.0635 6.30437 37.6934C6.37045 38.0636 6.36278 38.4431 6.2819 38.8104C6.20094 39.1776 6.04838 39.5252 5.83286 39.8334C5.61734 40.1415 5.34309 40.4041 5.02589 40.606C4.70869 40.8079 4.35478 40.9453 3.98438 41.0102C4.35445 40.9442 4.7339 40.952 5.10094 41.033C5.46806 41.1139 5.81549 41.2666 6.12349 41.4821C6.43149 41.6976 6.6939 41.9718 6.89574 42.289C7.0975 42.6061 7.23477 42.9599 7.29957 43.3302C7.23373 42.9602 7.24149 42.5809 7.32237 42.2138C7.40325 41.8469 7.55574 41.4994 7.7711 41.1914C7.98646 40.8834 8.26037 40.6209 8.57733 40.4189C8.89421 40.2169 9.24781 40.0794 9.61797 40.0142Z" stroke="#8767E3" stroke-width="0.8" stroke-linecap="round" stroke-linejoin="round"/>
    <path d="M118.604 79.8271L119.359 84.1008" stroke="#8767E3" stroke-width="0.8" stroke-linecap="round" stroke-linejoin="round"/>
    <path d="M128.389 86.6729L124.115 87.4281" stroke="#8767E3" stroke-width="0.8" stroke-linecap="round" stroke-linejoin="round"/>
    <path d="M121.543 96.4577L120.787 92.1841" stroke="#8767E3" stroke-width="0.8" stroke-linecap="round" stroke-linejoin="round"/>
    <path d="M111.758 89.6121L116.034 88.8569" stroke="#8767E3" stroke-width="0.8" stroke-linecap="round" stroke-linejoin="round"/>
    <path d="M124.114 87.4278C123.583 87.5222 123.039 87.511 122.512 87.395C121.986 87.279 121.488 87.0598 121.046 86.751C120.604 86.4422 120.228 86.0486 119.938 85.5942C119.648 85.139 119.452 84.6318 119.358 84.1006C119.452 84.631 119.442 85.175 119.326 85.7022C119.21 86.2286 118.992 86.727 118.683 87.1686C118.374 87.6102 117.98 87.987 117.526 88.2766C117.072 88.5662 116.564 88.763 116.033 88.8566C116.564 88.7622 117.108 88.7734 117.635 88.8894C118.161 89.0054 118.659 89.2246 119.1 89.5334C119.542 89.8422 119.919 90.2358 120.208 90.6902C120.497 91.1454 120.694 91.6526 120.787 92.1838C120.692 91.6526 120.704 91.1086 120.82 90.5822C120.936 90.0558 121.155 89.5574 121.464 89.1158C121.772 88.6734 122.166 88.2974 122.62 88.0078C123.076 87.7182 123.583 87.5206 124.114 87.4278Z" stroke="#8767E3" stroke-width="0.8" stroke-linecap="round" stroke-linejoin="round"/>
</svg>
